smi_TFPM/temp/data/简谐波加任意波/TEK00000.CSV

Model,TBS2102B
Firmware Version,v1.31.16

Point Format,Y
Horizontal Units,S
Horizontal Scale,0.002
Sample Interval,1.6e-07
Filter Frequency,2e+08
Record Length,200000
Gating,0.0% to 100.0%
Probe Attenuation,10
Vertical Units,V
Vertical Offset,0
Vertical Scale,5
Label,
TIME,CH1
-1.60000e-02,-0.8
-1.59998e-02,-0.6
-1.59997e-02,-0.2
-1.59995e-02,0
-1.59994e-02,0
-1.59992e-02,0
-1.59990e-02,0
-1.59989e-02,-0.4
-1.59987e-02,-0.6
-1.59986e-02,-0.8
-1.59984e-02,-0.8
-1.59982e-02,-0.6
-1.59981e-02,-0.6
-1.59979e-02,-0.2
-1.59978e-02,0
-1.59976e-02,-0.2
-1.59974e-02,0.2
-1.59973e-02,0.2
-1.59971e-02,0.2
-1.59970e-02,0.2
-1.59968e-02,0.2
-1.59966e-02,-0.2
-1.59965e-02,-0.4
-1.59963e-02,-0.8
-1.59962e-02,-1
-1.59960e-02,-1.2
-1.59958e-02,-1.4
-1.59957e-02,-1.4
-1.59955e-02,-1.4
-1.59954e-02,-1.2
-1.59952e-02,-0.8
-1.59950e-02,-0.6
-1.59949e-02,-0.6
-1.59947e-02,-0.6
-1.59946e-02,-1
-1.59944e-02,-1.2
-1.59942e-02,-1.2
-1.59941e-02,-1
-1.59939e-02,-0.8
-1.59938e-02,-0.6
-1.59936e-02,-0.6
-1.59934e-02,-0.4
-1.59933e-02,-0.4
-1.59931e-02,0
-1.59930e-02,0
-1.59928e-02,0.2
-1.59926e-02,0
-1.59925e-02,-0.2
-1.59923e-02,-0.8
-1.59922e-02,-0.8
-1.59920e-02,-1
-1.59918e-02,-1.2
-1.59917e-02,-1.4
-1.59915e-02,-1.6
-1.59914e-02,-1.8
-1.59912e-02,-2
-1.59910e-02,-2
-1.59909e-02,-2
-1.59907e-02,-2
-1.59906e-02,-2.4
-1.59904e-02,-2.4
-1.59902e-02,-2.6
-1.59901e-02,-2.6
-1.59899e-02,-2.6
-1.59898e-02,-2.6
-1.59896e-02,-2.8
-1.59894e-02,-2.8
-1.59893e-02,-3.2
-1.59891e-02,-3.2
-1.59890e-02,-3
-1.59888e-02,-3.2
-1.59886e-02,-3
-1.59885e-02,-3.2
-1.59883e-02,-3.2
-1.59882e-02,-3.4
-1.59880e-02,-3.6
-1.59878e-02,-3.4
-1.59877e-02,-3.4
-1.59875e-02,-3.4
-1.59874e-02,-3.4
-1.59872e-02,-3.6
-1.59870e-02,-3.8
-1.59869e-02,-3.8
-1.59867e-02,-3.6
-1.59866e-02,-3.6
-1.59864e-02,-3.4
-1.59862e-02,-3.2
-1.59861e-02,-3.2
-1.59859e-02,-3
-1.59858e-02,-2.8
-1.59856e-02,-2.6
-1.59854e-02,-2.6
-1.59853e-02,-2.8
-1.59851e-02,-3
-1.59850e-02,-3
-1.59848e-02,-3.2
-1.59846e-02,-3.2
-1.59845e-02,-3.2
-1.59843e-02,-3
-1.59842e-02,-3
-1.59840e-02,-3.2
-1.59838e-02,-3.2
-1.59837e-02,-3
-1.59835e-02,-3.4
-1.59834e-02,-3.4
-1.59832e-02,-3.4
-1.59830e-02,-3.6
-1.59829e-02,-3.6
-1.59827e-02,-3.8
-1.59826e-02,-3.6
-1.59824e-02,-3.6
-1.59822e-02,-3.6
-1.59821e-02,-3.6
-1.59819e-02,-3.4
-1.59818e-02,-3.6
-1.59816e-02,-3.6
-1.59814e-02,-3.4
-1.59813e-02,-3.6
-1.59811e-02,-3.8
-1.59810e-02,-3.8
-1.59808e-02,-4
-1.59806e-02,-4
-1.59805e-02,-3.8
-1.59803e-02,-3.8
-1.59802e-02,-3.8
-1.59800e-02,-3.6
-1.59798e-02,-3.6
-1.59797e-02,-3.8
-1.59795e-02,-3.6
-1.59794e-02,-3.6
-1.59792e-02,-3.6
-1.59790e-02,-3.8
-1.59789e-02,-3.6
-1.59787e-02,-3.8
-1.59786e-02,-3.8
-1.59784e-02,-3.8
-1.59782e-02,-3.8
-1.59781e-02,-3.8
-1.59779e-02,-3.8
-1.59778e-02,-3.8
-1.59776e-02,-3.6
-1.59774e-02,-3.8
-1.59773e-02,-3.6
-1.59771e-02,-3.6
-1.59770e-02,-3.8
-1.59768e-02,-3.8
-1.59766e-02,-3.8
-1.59765e-02,-3.8
-1.59763e-02,-3.8
-1.59762e-02,-3.8
-1.59760e-02,-3.8
-1.59758e-02,-3.8
-1.59757e-02,-3.6
-1.59755e-02,-3.6
-1.59754e-02,-3.8
-1.59752e-02,-3.8
-1.59750e-02,-3.8
-1.59749e-02,-3.8
-1.59747e-02,-3.8
-1.59746e-02,-3.8
-1.59744e-02,-3.8
-1.59742e-02,-3.8
-1.59741e-02,-4
-1.59739e-02,-3.8
-1.59738e-02,-3.8
-1.59736e-02,-3.8
-1.59734e-02,-3.8
-1.59733e-02,-3.8
-1.59731e-02,-3.8
-1.59730e-02,-3.8
-1.59728e-02,-4
-1.59726e-02,-3.8
-1.59725e-02,-3.8
-1.59723e-02,-3.8
-1.59722e-02,-3.8
-1.59720e-02,-3.8
-1.59718e-02,-3.8
-1.59717e-02,-3.8
-1.59715e-02,-3.8
-1.59714e-02,-3.8
-1.59712e-02,-3.8
-1.59710e-02,-3.8
-1.59709e-02,-4
-1.59707e-02,-3.8
-1.59706e-02,-3.8
-1.59704e-02,-4
-1.59702e-02,-4
-1.59701e-02,-3.8
-1.59699e-02,-3.8
-1.59698e-02,-3.8
-1.59696e-02,-4
-1.59694e-02,-3.8
-1.59693e-02,-3.8
-1.59691e-02,-3.8
-1.59690e-02,-3.6
-1.59688e-02,-3.2
-1.59686e-02,-3
-1.59685e-02,-2.8
-1.59683e-02,-2.6
-1.59682e-02,-2.2
-1.59680e-02,-2
-1.59678e-02,-1.6
-1.59677e-02,-1.6
-1.59675e-02,-1.8
-1.59674e-02,-2
-1.59672e-02,-2.2
-1.59670e-02,-2.2
-1.59669e-02,-2.4
-1.59667e-02,-2.4
-1.59666e-02,-2.2
-1.59664e-02,-2.2
-1.59662e-02,-2.2
-1.59661e-02,-1.8
-1.59659e-02,-1.6
-1.59658e-02,-1.2
-1.59656e-02,-1.2
-1.59654e-02,-1
-1.59653e-02,-1
-1.59651e-02,-1.2
-1.59650e-02,-1.4
-1.59648e-02,-1.6
-1.59646e-02,-1.8
-1.59645e-02,-1.6
-1.59643e-02,-1.4
-1.59642e-02,-1.2
-1.59640e-02,-0.8
-1.59638e-02,-0.6
-1.59637e-02,-0.4
-1.59635e-02,-0.4
-1.59634e-02,-0.4
-1.59632e-02,-0.2
-1.59630e-02,-0.4
-1.59629e-02,-0.6
-1.59627e-02,-1
-1.59626e-02,-1.2
-1.59624e-02,-1
-1.59622e-02,-1
-1.59621e-02,-0.8
-1.59619e-02,-0.6
-1.59618e-02,-0.2
-1.59616e-02,0
-1.59614e-02,0
-1.59613e-02,0.2
-1.59611e-02,0
-1.59610e-02,0.2
-1.59608e-02,0.2
-1.59606e-02,0.4
-1.59605e-02,0.6
-1.59603e-02,0.8
-1.59602e-02,0.8
-1.59600e-02,0.8
-1.59598e-02,1.2
-1.59597e-02,1.2
-1.59595e-02,1.2
-1.59594e-02,1.2
-1.59592e-02,1.4
-1.59590e-02,1.4
-1.59589e-02,1.6
-1.59587e-02,1.4
-1.59586e-02,1.4
-1.59584e-02,1.6
-1.59582e-02,1.6
-1.59581e-02,1.6
-1.59579e-02,1.8
-1.59578e-02,1.8
-1.59576e-02,1.8
-1.59574e-02,2
-1.59573e-02,1.8
-1.59571e-02,1.8
-1.59570e-02,1.8
-1.59568e-02,1.8
-1.59566e-02,2
-1.59565e-02,2
-1.59563e-02,1.8
-1.59562e-02,1.8
-1.59560e-02,2
-1.59558e-02,2
-1.59557e-02,2
-1.59555e-02,2
-1.59554e-02,2
-1.59552e-02,2.2
-1.59550e-02,2
-1.59549e-02,2
-1.59547e-02,2
-1.59546e-02,2
-1.59544e-02,2.2
-1.59542e-02,2
-1.59541e-02,2.2
-1.59539e-02,2
-1.59538e-02,2.2
-1.59536e-02,2.2
-1.59534e-02,2.2
-1.59533e-02,2
-1.59531e-02,2.2
-1.59530e-02,2.2
-1.59528e-02,2.2
-1.59526e-02,2
-1.59525e-02,2
-1.59523e-02,2.2
-1.59522e-02,2.2
-1.59520e-02,2
-1.59518e-02,2
-1.59517e-02,2
-1.59515e-02,2.2
-1.59514e-02,2
-1.59512e-02,2
-1.59510e-02,2
-1.59509e-02,2
-1.59507e-02,2
-1.59506e-02,2
-1.59504e-02,2
-1.59502e-02,2
-1.59501e-02,2
-1.59499e-02,2
-1.59498e-02,2
-1.59496e-02,2
-1.59494e-02,2.2
-1.59493e-02,2
-1.59491e-02,1.8
-1.59490e-02,1.4
-1.59488e-02,1.4
-1.59486e-02,1.4
-1.59485e-02,1.6
-1.59483e-02,1.8
-1.59482e-02,2
-1.59480e-02,2.4
-1.59478e-02,2.2
-1.59477e-02,2
-1.59475e-02,1.6
-1.59474e-02,1.4
-1.59472e-02,1.4
-1.59470e-02,2
-1.59469e-02,2.6
-1.59467e-02,2.6
-1.59466e-02,2.4
-1.59464e-02,2
-1.59462e-02,1.8
-1.59461e-02,1.8
-1.59459e-02,2
-1.59458e-02,2.4
-1.59456e-02,2.6
-1.59454e-02,2.4
-1.59453e-02,2
-1.59451e-02,1.6
-1.59450e-02,1.4
-1.59448e-02,1.6
-1.59446e-02,1.8
-1.59445e-02,2
-1.59443e-02,2
-1.59442e-02,2
-1.59440e-02,1.8
-1.59438e-02,1.8
-1.59437e-02,1.8
-1.59435e-02,2
-1.59434e-02,1.8
-1.59432e-02,1.6
-1.59430e-02,1.6
-1.59429e-02,1.8
-1.59427e-02,1.8
-1.59426e-02,1.8
-1.59424e-02,2
-1.59422e-02,2
-1.59421e-02,2.2
-1.59419e-02,2.2
-1.59418e-02,2.6
-1.59416e-02,2.6
-1.59414e-02,2.4
-1.59413e-02,2.2
-1.59411e-02,2.4
-1.59410e-02,2.2
-1.59408e-02,2.2
-1.59406e-02,2
-1.59405e-02,2.2
-1.59403e-02,2.2
-1.59402e-02,2.2
-1.59400e-02,2
-1.59398e-02,2
-1.59397e-02,1.8
-1.59395e-02,1.8
-1.59394e-02,1.6
-1.59392e-02,1.6
-1.59390e-02,1.4
-1.59389e-02,1.4
-1.59387e-02,1.2
-1.59386e-02,1
-1.59384e-02,1
-1.59382e-02,1
-1.59381e-02,1
-1.59379e-02,1.2
-1.59378e-02,1.6
-1.59376e-02,1.8
-1.59374e-02,2.2
-1.59373e-02,1.8
-1.59371e-02,1.6
-1.59370e-02,1.6
-1.59368e-02,2
-1.59366e-02,2.4
-1.59365e-02,2.8
-1.59363e-02,3
-1.59362e-02,2.8
-1.59360e-02,2.4
-1.59358e-02,2.2
-1.59357e-02,2.2
-1.59355e-02,2.4
-1.59354e-02,2.8
-1.59352e-02,2.6
-1.59350e-02,2.2
-1.59349e-02,2
-1.59347e-02,1.6
-1.59346e-02,1.8
-1.59344e-02,2
-1.59342e-02,2.2
-1.59341e-02,2.2
-1.59339e-02,1.8
-1.59338e-02,1.6
-1.59336e-02,1.6
-1.59334e-02,1.8
-1.59333e-02,2
-1.59331e-02,2
-1.59330e-02,2
-1.59328e-02,1.8
-1.59326e-02,1.8
-1.59325e-02,1.8
-1.59323e-02,2
-1.59322e-02,2
-1.59320e-02,2.2
-1.59318e-02,2.2
-1.59317e-02,2.2
-1.59315e-02,2
-1.59314e-02,2
-1.59312e-02,2
-1.59310e-02,2.2
-1.59309e-02,2.2
-1.59307e-02,2.2
-1.59306e-02,1.8
-1.59304e-02,2
-1.59302e-02,2
-1.59301e-02,2.4
-1.59299e-02,2
-1.59298e-02,1.8
-1.59296e-02,1.4
-1.59294e-02,1.4
-1.59293e-02,1.2
-1.59291e-02,1.4
-1.59290e-02,1.6
-1.59288e-02,1.8
-1.59286e-02,2
-1.59285e-02,2.2
-1.59283e-02,2.2
-1.59282e-02,2.4
-1.59280e-02,2.2
-1.59278e-02,2.2
-1.59277e-02,2
-1.59275e-02,2
-1.59274e-02,2
-1.59272e-02,2
-1.59270e-02,2
-1.59269e-02,2.2
-1.59267e-02,2.2
-1.59266e-02,2.2
-1.59264e-02,2.2
-1.59262e-02,2.4
-1.59261e-02,2.4
-1.59259e-02,2.6
-1.59258e-02,2.4
-1.59256e-02,2.4
-1.59254e-02,2
-1.59253e-02,2
-1.59251e-02,1.8
-1.59250e-02,1.8
-1.59248e-02,2
-1.59246e-02,2
-1.59245e-02,2
-1.59243e-02,2
-1.59242e-02,2.2
-1.59240e-02,2.2
-1.59238e-02,2.4
-1.59237e-02,2.4
-1.59235e-02,2.2
-1.59234e-02,2.2
-1.59232e-02,2.2
-1.59230e-02,2
-1.59229e-02,2.2
-1.59227e-02,2.2
-1.59226e-02,2
-1.59224e-02,2
-1.59222e-02,2.2
-1.59221e-02,2.2
-1.59219e-02,2.4
-1.59218e-02,2.4
-1.59216e-02,2.4
-1.59214e-02,2.2
-1.59213e-02,2.2
-1.59211e-02,2.2
-1.59210e-02,2
-1.59208e-02,2
-1.59206e-02,1.8
-1.59205e-02,2
-1.59203e-02,2
-1.59202e-02,2
-1.59200e-02,2
-1.59198e-02,2
-1.59197e-02,2.2
-1.59195e-02,2.2
-1.59194e-02,2
-1.59192e-02,2.2
-1.59190e-02,2
-1.59189e-02,2
-1.59187e-02,2
-1.59186e-02,2
-1.59184e-02,2
-1.59182e-02,2.2
-1.59181e-02,2
-1.59179e-02,2.2
-1.59178e-02,2.2
-1.59176e-02,2.2
-1.59174e-02,2.2
-1.59173e-02,2.2
-1.59171e-02,2.2
-1.59170e-02,2.2
-1.59168e-02,2.2
-1.59166e-02,2
-1.59165e-02,2
-1.59163e-02,2
-1.59162e-02,2
-1.59160e-02,2
-1.59158e-02,2.2
-1.59157e-02,2
-1.59155e-02,2.2
-1.59154e-02,2
-1.59152e-02,2
-1.59150e-02,1.8
-1.59149e-02,2
-1.59147e-02,2
-1.59146e-02,2.2
-1.59144e-02,2
-1.59142e-02,2
-1.59141e-02,2.2
-1.59139e-02,1.8
-1.59138e-02,2
-1.59136e-02,2
-1.59134e-02,2
-1.59133e-02,2
-1.59131e-02,2.2
-1.59130e-02,2
-1.59128e-02,2.2
-1.59126e-02,2
-1.59125e-02,2.2
-1.59123e-02,2
-1.59122e-02,2.2
-1.59120e-02,2.2
-1.59118e-02,2.2
-1.59117e-02,2
-1.59115e-02,2.2
-1.59114e-02,2
-1.59112e-02,2
-1.59110e-02,2
-1.59109e-02,2
-1.59107e-02,2.2
-1.59106e-02,2.2
-1.59104e-02,2.6
-1.59102e-02,2.4
-1.59101e-02,2.4
-1.59099e-02,2.4
-1.59098e-02,2.4
-1.59096e-02,2
-1.59094e-02,2
-1.59093e-02,1.8
-1.59091e-02,1.8
-1.59090e-02,1.8
-1.59088e-02,2
-1.59086e-02,2.2
-1.59085e-02,2.2
-1.59083e-02,2.2
-1.59082e-02,2
-1.59080e-02,1.8
-1.59078e-02,1.8
-1.59077e-02,1.8
-1.59075e-02,1.6
-1.59074e-02,1.6
-1.59072e-02,1.6
-1.59070e-02,1.2
-1.59069e-02,0.8
-1.59067e-02,0.8
-1.59066e-02,0.4
-1.59064e-02,0.8
-1.59062e-02,1
-1.59061e-02,1
-1.59059e-02,1.2
-1.59058e-02,1.4
-1.59056e-02,1.2
-1.59054e-02,1.2
-1.59053e-02,1
-1.59051e-02,1.2
-1.59050e-02,0.8
-1.59048e-02,0.4
-1.59046e-02,0.2
-1.59045e-02,0
-1.59043e-02,0.2
-1.59042e-02,0.2
-1.59040e-02,0.4
-1.59038e-02,0.6
-1.59037e-02,0.8
-1.59035e-02,0.8
-1.59034e-02,1
-1.59032e-02,1
-1.59030e-02,1.2
-1.59029e-02,1
-1.59027e-02,1.2
-1.59026e-02,1.2
-1.59024e-02,1.4
-1.59022e-02,1.4
-1.59021e-02,1.6
-1.59019e-02,1.6
-1.59018e-02,1.8
-1.59016e-02,1.6
-1.59014e-02,1.8
-1.59013e-02,2
-1.59011e-02,2.4
-1.59010e-02,2.4
-1.59008e-02,2.4
-1.59006e-02,2
-1.59005e-02,1.8
-1.59003e-02,1.8
-1.59002e-02,2
-1.59000e-02,2.4
-1.58998e-02,2.4
-1.58997e-02,2.2
-1.58995e-02,2.2
-1.58994e-02,2
-1.58992e-02,2.2
-1.58990e-02,2.4
-1.58989e-02,2.4
-1.58987e-02,2
-1.58986e-02,1.6
-1.58984e-02,1.2
-1.58982e-02,1
-1.58981e-02,1.4
-1.58979e-02,1.8
-1.58978e-02,2
-1.58976e-02,1.8
-1.58974e-02,1.2
-1.58973e-02,0.8
-1.58971e-02,0.4
-1.58970e-02,0
-1.58968e-02,0.4
-1.58966e-02,0.8
-1.58965e-02,1.2
-1.58963e-02,1.6
-1.58962e-02,1.2
-1.58960e-02,0.8
-1.58958e-02,0.4
-1.58957e-02,0
-1.58955e-02,-0.2
-1.58954e-02,-0.2
-1.58952e-02,0.4
-1.58950e-02,0.6
-1.58949e-02,1
-1.58947e-02,0.8
-1.58946e-02,0.4
-1.58944e-02,0
-1.58942e-02,-0.4
-1.58941e-02,-0.6
-1.58939e-02,-0.6
-1.58938e-02,-0.2
-1.58936e-02,0.2
-1.58934e-02,0.2
-1.58933e-02,0.2
-1.58931e-02,-0.2
-1.58930e-02,-0.6
-1.58928e-02,-1
-1.58926e-02,-1.2
-1.58925e-02,-1
-1.58923e-02,-0.4
-1.58922e-02,0
-1.58920e-02,0
-1.58918e-02,-0.2
-1.58917e-02,-0.4
-1.58915e-02,-0.8
-1.58914e-02,-1.2
-1.58912e-02,-1
-1.58910e-02,-0.8
-1.58909e-02,-0.4
-1.58907e-02,-0.2
-1.58906e-02,-0.6
-1.58904e-02,-1
-1.58902e-02,-1.4
-1.58901e-02,-1.4
-1.58899e-02,-0.8
-1.58898e-02,-0.4
-1.58896e-02,-0.6
-1.58894e-02,-1.2
-1.58893e-02,-1.6
-1.58891e-02,-2
-1.58890e-02,-2
-1.58888e-02,-1.6
-1.58886e-02,-1.2
-1.58885e-02,-0.8
-1.58883e-02,-0.6
-1.58882e-02,-1.4
-1.58880e-02,-1.8
-1.58878e-02,-2.2
-1.58877e-02,-2.2
-1.58875e-02,-2
-1.58874e-02,-1.6
-1.58872e-02,-1.2
-1.58870e-02,-1
-1.58869e-02,-1
-1.58867e-02,-1.2
-1.58866e-02,-1.2
-1.58864e-02,-1.4
-1.58862e-02,-1.6
-1.58861e-02,-1.6
-1.58859e-02,-2
-1.58858e-02,-1.8
-1.58856e-02,-1.4
-1.58854e-02,-1.2
-1.58853e-02,-1
-1.58851e-02,-1.2
-1.58850e-02,-1.6
-1.58848e-02,-2
-1.58846e-02,-2.2
-1.58845e-02,-2.2
-1.58843e-02,-2
-1.58842e-02,-2.2
-1.58840e-02,-2.4
-1.58838e-02,-2.6
-1.58837e-02,-3
-1.58835e-02,-3
-1.58834e-02,-3
-1.58832e-02,-2.8
-1.58830e-02,-2.4
-1.58829e-02,-2.6
-1.58827e-02,-2.4
-1.58826e-02,-2.6
-1.58824e-02,-2.8
-1.58822e-02,-3.2
-1.58821e-02,-3
-1.58819e-02,-3
-1.58818e-02,-2.8
-1.58816e-02,-2.6
-1.58814e-02,-2.4
-1.58813e-02,-2.6
-1.58811e-02,-2.6
-1.58810e-02,-2.8
-1.58808e-02,-3.2
-1.58806e-02,-3.6
-1.58805e-02,-3.6
-1.58803e-02,-3.6
-1.58802e-02,-3.6
-1.58800e-02,-3.4
-1.58798e-02,-3.4
-1.58797e-02,-3.2
-1.58795e-02,-3.4
-1.58794e-02,-3.8
-1.58792e-02,-3.8
-1.58790e-02,-4
-1.58789e-02,-4.2
-1.58787e-02,-4
-1.58786e-02,-3.8
-1.58784e-02,-3.6
-1.58782e-02,-3.6
-1.58781e-02,-3.6
-1.58779e-02,-3.6
-1.58778e-02,-3.6
-1.58776e-02,-3.8
-1.58774e-02,-3.8
-1.58773e-02,-3.8
-1.58771e-02,-3.8
-1.58770e-02,-3.8
-1.58768e-02,-3.8
-1.58766e-02,-3.8
-1.58765e-02,-4
-1.58763e-02,-4
-1.58762e-02,-4
-1.58760e-02,-4
-1.58758e-02,-3.8
-1.58757e-02,-4
-1.58755e-02,-4
-1.58754e-02,-3.8
-1.58752e-02,-4
-1.58750e-02,-4
-1.58749e-02,-4
-1.58747e-02,-4
-1.58746e-02,-4
-1.58744e-02,-3.8
-1.58742e-02,-3.8
-1.58741e-02,-3.8
-1.58739e-02,-3.8
-1.58738e-02,-3.8
-1.58736e-02,-3.8
-1.58734e-02,-3.8
-1.58733e-02,-4.2
-1.58731e-02,-4
-1.58730e-02,-3.8
-1.58728e-02,-3.8
-1.58726e-02,-3.4
-1.58725e-02,-3.2
-1.58723e-02,-3.2
-1.58722e-02,-3.4
-1.58720e-02,-3.6
-1.58718e-02,-3.6
-1.58717e-02,-4
-1.58715e-02,-4
-1.58714e-02,-4
-1.58712e-02,-4
-1.58710e-02,-4.2
-1.58709e-02,-3.8
-1.58707e-02,-3.8
-1.58706e-02,-3.8
-1.58704e-02,-3.8
-1.58702e-02,-3.6
-1.58701e-02,-3.2
-1.58699e-02,-3
-1.58698e-02,-2.8
-1.58696e-02,-2.4
-1.58694e-02,-2.2
-1.58693e-02,-2.4
-1.58691e-02,-2.6
-1.58690e-02,-2.8
-1.58688e-02,-3
-1.58686e-02,-2.8
-1.58685e-02,-2.8
-1.58683e-02,-2.6
-1.58682e-02,-2.4
-1.58680e-02,-2
-1.58678e-02,-1.6
-1.58677e-02,-1.6
-1.58675e-02,-1.4
-1.58674e-02,-1.6
-1.58672e-02,-1.8
-1.58670e-02,-2
-1.58669e-02,-2
-1.58667e-02,-2.2
-1.58666e-02,-2
-1.58664e-02,-2
-1.58662e-02,-1.8
-1.58661e-02,-1.4
-1.58659e-02,-1.2
-1.58658e-02,-0.8
-1.58656e-02,-0.8
-1.58654e-02,-0.6
-1.58653e-02,-0.4
-1.58651e-02,-0.4
-1.58650e-02,-0.4
-1.58648e-02,-0.4
-1.58646e-02,-0.6
-1.58645e-02,-1
-1.58643e-02,-0.8
-1.58642e-02,-0.8
-1.58640e-02,-0.6
-1.58638e-02,-0.2
-1.58637e-02,0
-1.58635e-02,0
-1.58634e-02,0
-1.58632e-02,0
-1.58630e-02,0.2
-1.58629e-02,0.2
-1.58627e-02,0.4
-1.58626e-02,0.6
-1.58624e-02,0.8
-1.58622e-02,0.8
-1.58621e-02,0.8
-1.58619e-02,1
-1.58618e-02,1.2
-1.58616e-02,1.2
-1.58614e-02,1.2
-1.58613e-02,1.2
-1.58611e-02,1.2
-1.58610e-02,1.2
-1.58608e-02,1.4
-1.58606e-02,1.4
-1.58605e-02,1.6
-1.58603e-02,1.6
-1.58602e-02,1.6
-1.58600e-02,1.8
-1.58598e-02,1.6
-1.58597e-02,1.8
-1.58595e-02,1.8
-1.58594e-02,2
-1.58592e-02,1.8
-1.58590e-02,2
-1.58589e-02,1.8
-1.58587e-02,1.8
-1.58586e-02,1.8
-1.58584e-02,1.8
-1.58582e-02,2
-1.58581e-02,2
-1.58579e-02,2
-1.58578e-02,1.8
-1.58576e-02,1.8
-1.58574e-02,1.8
-1.58573e-02,1.8
-1.58571e-02,1.8
-1.58570e-02,2
-1.58568e-02,2
-1.58566e-02,2
-1.58565e-02,2
-1.58563e-02,1.8
-1.58562e-02,1.8
-1.58560e-02,2
-1.58558e-02,2
-1.58557e-02,2
-1.58555e-02,2
-1.58554e-02,2
-1.58552e-02,2
-1.58550e-02,2
-1.58549e-02,2
-1.58547e-02,2
-1.58546e-02,2
-1.58544e-02,2.4
-1.58542e-02,2.2
-1.58541e-02,2.2
-1.58539e-02,2
-1.58538e-02,1.8
-1.58536e-02,1.8
-1.58534e-02,1.6
-1.58533e-02,1.6
-1.58531e-02,1.8
-1.58530e-02,2
-1.58528e-02,2
-1.58526e-02,2.4
-1.58525e-02,2.6
-1.58523e-02,2.4
-1.58522e-02,2.4
-1.58520e-02,2.2
-1.58518e-02,2
-1.58517e-02,2
-1.58515e-02,1.8
-1.58514e-02,2
-1.58512e-02,2
-1.58510e-02,2
-1.58509e-02,2
-1.58507e-02,2.2
-1.58506e-02,2.2
-1.58504e-02,2.4
-1.58502e-02,2.4
-1.58501e-02,2.4
-1.58499e-02,2.2
-1.58498e-02,2
-1.58496e-02,2.2
-1.58494e-02,1.8
-1.58493e-02,1.8
-1.58491e-02,1.6
-1.58490e-02,1.8
-1.58488e-02,1.8
-1.58486e-02,2
-1.58485e-02,2.2
-1.58483e-02,2
-1.58482e-02,2
-1.58480e-02,2
-1.58478e-02,2
-1.58477e-02,2
-1.58475e-02,1.8
-1.58474e-02,1.8
-1.58472e-02,1.8
-1.58470e-02,1.8
-1.58469e-02,1.8
-1.58467e-02,1.8
-1.58466e-02,1.8
-1.58464e-02,2
-1.58462e-02,2.2
-1.58461e-02,2
-1.58459e-02,2.2
-1.58458e-02,2
-1.58456e-02,2
-1.58454e-02,1.8
-1.58453e-02,1.8
-1.58451e-02,1.8
-1.58450e-02,1.8
-1.58448e-02,1.8
-1.58446e-02,1.8
-1.58445e-02,1.8
-1.58443e-02,1.8
-1.58442e-02,2
-1.58440e-02,1.8
-1.58438e-02,1.8
-1.58437e-02,1.8
-1.58435e-02,1.8
-1.58434e-02,1.8
-1.58432e-02,1.8
-1.58430e-02,1.6
-1.58429e-02,1.8
-1.58427e-02,1.8
-1.58426e-02,1.8
-1.58424e-02,1.8
-1.58422e-02,1.8
-1.58421e-02,2
-1.58419e-02,1.8
-1.58418e-02,1.8
-1.58416e-02,1.8
-1.58414e-02,2
-1.58413e-02,1.8
-1.58411e-02,2
-1.58410e-02,1.8
-1.58408e-02,2
-1.58406e-02,1.8
-1.58405e-02,1.8
-1.58403e-02,1.8
-1.58402e-02,1.8
-1.58400e-02,2
-1.58398e-02,1.8
-1.58397e-02,2
-1.58395e-02,2
-1.58394e-02,2
-1.58392e-02,2
-1.58390e-02,1.8
-1.58389e-02,1.8
-1.58387e-02,2
-1.58386e-02,1.8
-1.58384e-02,2
-1.58382e-02,1.8
-1.58381e-02,1.8
-1.58379e-02,1.8
-1.58378e-02,1.8
-1.58376e-02,1.8
-1.58374e-02,1.8
-1.58373e-02,1.8
-1.58371e-02,2
-1.58370e-02,1.8
-1.58368e-02,1.8
-1.58366e-02,1.8
-1.58365e-02,1.8
-1.58363e-02,1.8
-1.58362e-02,1.8
-1.58360e-02,1.8
-1.58358e-02,1.8
-1.58357e-02,1.8
-1.58355e-02,1.6
-1.58354e-02,1.6
-1.58352e-02,1.6
-1.58350e-02,1.8
-1.58349e-02,1.8
-1.58347e-02,2
-1.58346e-02,2
-1.58344e-02,2.2
-1.58342e-02,2
-1.58341e-02,2
-1.58339e-02,1.8
-1.58338e-02,1.8
-1.58336e-02,1.6
-1.58334e-02,1.4
-1.58333e-02,1.6
-1.58331e-02,1.8
-1.58330e-02,1.8
-1.58328e-02,1.8
-1.58326e-02,2
-1.58325e-02,2.2
-1.58323e-02,2
-1.58322e-02,2
-1.58320e-02,1.8
-1.58318e-02,2
-1.58317e-02,1.6
-1.58315e-02,1.8
-1.58314e-02,1.6
-1.58312e-02,1.6
-1.58310e-02,1.8
-1.58309e-02,1.8
-1.58307e-02,1.8
-1.58306e-02,2
-1.58304e-02,2
-1.58302e-02,2.2
-1.58301e-02,2
-1.58299e-02,2
-1.58298e-02,2
-1.58296e-02,2
-1.58294e-02,1.8
-1.58293e-02,1.8
-1.58291e-02,1.6
-1.58290e-02,1.8
-1.58288e-02,1.8
-1.58286e-02,2
-1.58285e-02,1.8
-1.58283e-02,2.2
-1.58282e-02,2
-1.58280e-02,2.2
-1.58278e-02,2
-1.58277e-02,2
-1.58275e-02,1.8
-1.58274e-02,2
-1.58272e-02,1.8
-1.58270e-02,1.8
-1.58269e-02,2
-1.58267e-02,1.8
-1.58266e-02,2
-1.58264e-02,2
-1.58262e-02,2
-1.58261e-02,2
-1.58259e-02,2
-1.58258e-02,2
-1.58256e-02,2
-1.58254e-02,1.8
-1.58253e-02,1.8
-1.58251e-02,2
-1.58250e-02,1.8
-1.58248e-02,1.8
-1.58246e-02,1.8
-1.58245e-02,1.8
-1.58243e-02,2
-1.58242e-02,1.8
-1.58240e-02,1.6
-1.58238e-02,1.6
-1.58237e-02,1.4
-1.58235e-02,1.2
-1.58234e-02,1.2
-1.58232e-02,1.4
-1.58230e-02,1.6
-1.58229e-02,1.6
-1.58227e-02,1.6
-1.58226e-02,1.4
-1.58224e-02,1.2
-1.58222e-02,1.2
-1.58221e-02,1.6
-1.58219e-02,2.2
-1.58218e-02,2.4
-1.58216e-02,2.6
-1.58214e-02,2.4
-1.58213e-02,1.8
-1.58211e-02,1.4
-1.58210e-02,1.6
-1.58208e-02,2
-1.58206e-02,2.6
-1.58205e-02,2.4
-1.58203e-02,2.4
-1.58202e-02,1.8
-1.58200e-02,1.4
-1.58198e-02,1.4
-1.58197e-02,1.8
-1.58195e-02,2
-1.58194e-02,2.2
-1.58192e-02,2
-1.58190e-02,1.6
-1.58189e-02,1.4
-1.58187e-02,1.4
-1.58186e-02,1.6
-1.58184e-02,1.8
-1.58182e-02,1.8
-1.58181e-02,1.8
-1.58179e-02,1.6
-1.58178e-02,1.6
-1.58176e-02,1.8
-1.58174e-02,1.8
-1.58173e-02,2
-1.58171e-02,2
-1.58170e-02,2.2
-1.58168e-02,2.4
-1.58166e-02,2.6
-1.58165e-02,2.6
-1.58163e-02,2.6
-1.58162e-02,2.2
-1.58160e-02,2
-1.58158e-02,1.8
-1.58157e-02,1.8
-1.58155e-02,1.6
-1.58154e-02,2
-1.58152e-02,2
-1.58150e-02,2.2
-1.58149e-02,2
-1.58147e-02,1.8
-1.58146e-02,1.8
-1.58144e-02,1.6
-1.58142e-02,1.8
-1.58141e-02,1.4
-1.58139e-02,1.4
-1.58138e-02,1
-1.58136e-02,0.8
-1.58134e-02,0.8
-1.58133e-02,1.2
-1.58131e-02,1.4
-1.58130e-02,1.4
-1.58128e-02,1.2
-1.58126e-02,1.2
-1.58125e-02,1.4
-1.58123e-02,1.6
