smi_TFPM/temp/data/简谐波加任意波/TEK00004.CSV

Model,TBS2102B
Firmware Version,v1.31.16

Point Format,Y
Horizontal Units,S
Horizontal Scale,0.01
Sample Interval,8e-07
Filter Frequency,2e+08
Record Length,200000
Gating,0.0% to 100.0%
Probe Attenuation,10
Vertical Units,V
Vertical Offset,0
Vertical Scale,5
Label,
TIME,CH1
-8.00000e-02,-3.2
-7.99992e-02,-3.2
-7.99984e-02,-3
-7.99976e-02,-3.2
-7.99968e-02,-2.8
-7.99960e-02,-2.8
-7.99952e-02,-3.2
-7.99944e-02,-3
-7.99936e-02,-3
-7.99928e-02,-3
-7.99920e-02,-2.8
-7.99912e-02,-3
-7.99904e-02,-3
-7.99896e-02,-2.8
-7.99888e-02,-2.8
-7.99880e-02,-3
-7.99872e-02,-3.2
-7.99864e-02,-3
-7.99856e-02,-2.8
-7.99848e-02,-3
-7.99840e-02,-2.8
-7.99832e-02,-2.8
-7.99824e-02,-2.2
-7.99816e-02,-2.6
-7.99808e-02,-1.8
-7.99800e-02,-1
-7.99792e-02,-1.4
-7.99784e-02,-0.4
-7.99776e-02,-0.2
-7.99768e-02,-0.6
-7.99760e-02,0
-7.99752e-02,0.8
-7.99744e-02,1.2
-7.99736e-02,1.6
-7.99728e-02,2
-7.99720e-02,2.4
-7.99712e-02,2.2
-7.99704e-02,2.4
-7.99696e-02,2.6
-7.99688e-02,2.6
-7.99680e-02,2.8
-7.99672e-02,2.6
-7.99664e-02,2.6
-7.99656e-02,2.6
-7.99648e-02,2.6
-7.99640e-02,2.6
-7.99632e-02,2.8
-7.99624e-02,2.8
-7.99616e-02,2.4
-7.99608e-02,2.8
-7.99600e-02,2.6
-7.99592e-02,2.6
-7.99584e-02,3
-7.99576e-02,2.6
-7.99568e-02,2.8
-7.99560e-02,2.8
-7.99552e-02,2.6
-7.99544e-02,3
-7.99536e-02,2.6
-7.99528e-02,2.8
-7.99520e-02,2.6
-7.99512e-02,2.8
-7.99504e-02,2.6
-7.99496e-02,2.6
-7.99488e-02,2.4
-7.99480e-02,2.2
-7.99472e-02,2.6
-7.99464e-02,3.4
-7.99456e-02,3.4
-7.99448e-02,3.6
-7.99440e-02,2.6
-7.99432e-02,2
-7.99424e-02,1.8
-7.99416e-02,2
-7.99408e-02,2.8
-7.99400e-02,2.6
-7.99392e-02,1.8
-7.99384e-02,1.8
-7.99376e-02,1.8
-7.99368e-02,0.6
-7.99360e-02,1.4
-7.99352e-02,0.2
-7.99344e-02,1.6
-7.99336e-02,1
-7.99328e-02,0.4
-7.99320e-02,0.6
-7.99312e-02,0.6
-7.99304e-02,0
-7.99296e-02,0
-7.99288e-02,1
-7.99280e-02,-0.2
-7.99272e-02,-0.4
-7.99264e-02,-0.4
-7.99256e-02,-0.6
-7.99248e-02,-0.2
-7.99240e-02,-0.6
-7.99232e-02,-0.8
-7.99224e-02,-1.4
-7.99216e-02,-2
-7.99208e-02,-2
-7.99200e-02,-1.6
-7.99192e-02,-1.8
-7.99184e-02,-2
-7.99176e-02,-2.6
-7.99168e-02,-2.6
-7.99160e-02,-2.6
-7.99152e-02,-2.6
-7.99144e-02,-2.6
-7.99136e-02,-2.6
-7.99128e-02,-2.8
-7.99120e-02,-2.6
-7.99112e-02,-2.8
-7.99104e-02,-2.8
-7.99096e-02,-2.8
-7.99088e-02,-2.8
-7.99080e-02,-2.6
-7.99072e-02,-2.8
-7.99064e-02,-3
-7.99056e-02,-2.8
-7.99048e-02,-2.4
-7.99040e-02,-2.6
-7.99032e-02,-2.4
-7.99024e-02,-2.2
-7.99016e-02,-3
-7.99008e-02,-2.8
-7.99000e-02,-3
-7.98992e-02,-2.6
-7.98984e-02,-2.4
-7.98976e-02,-2.4
-7.98968e-02,-2.4
-7.98960e-02,-2.2
-7.98952e-02,-2.4
-7.98944e-02,-2.2
-7.98936e-02,-2.2
-7.98928e-02,-2
-7.98920e-02,-1.8
-7.98912e-02,-1.6
-7.98904e-02,-1.8
-7.98896e-02,-2.6
-7.98888e-02,-3
-7.98880e-02,-3.2
-7.98872e-02,-2.6
-7.98864e-02,-2
-7.98856e-02,-2.2
-7.98848e-02,-1.8
-7.98840e-02,-2.8
-7.98832e-02,-2.6
-7.98824e-02,-2.2
-7.98816e-02,-2.6
-7.98808e-02,-2
-7.98800e-02,-2.4
-7.98792e-02,-2.4
-7.98784e-02,-2.4
-7.98776e-02,-2.6
-7.98768e-02,-2.6
-7.98760e-02,-2.4
-7.98752e-02,-1.6
-7.98744e-02,-0.6
-7.98736e-02,-1
-7.98728e-02,-1
-7.98720e-02,0.2
-7.98712e-02,0
-7.98704e-02,-0.4
-7.98696e-02,0.6
-7.98688e-02,1.4
-7.98680e-02,0.4
-7.98672e-02,1
-7.98664e-02,1.4
-7.98656e-02,0.6
-7.98648e-02,1.2
-7.98640e-02,1.2
-7.98632e-02,0.8
-7.98624e-02,1.6
-7.98616e-02,1.4
-7.98608e-02,1.2
-7.98600e-02,1.8
-7.98592e-02,2.2
-7.98584e-02,2.6
-7.98576e-02,2.6
-7.98568e-02,2.6
-7.98560e-02,2.8
-7.98552e-02,3
-7.98544e-02,3
-7.98536e-02,3
-7.98528e-02,3
-7.98520e-02,3
-7.98512e-02,3.2
-7.98504e-02,2.8
-7.98496e-02,1.6
-7.98488e-02,2
-7.98480e-02,1
-7.98472e-02,0.6
-7.98464e-02,1.2
-7.98456e-02,0.2
-7.98448e-02,0.6
-7.98440e-02,1
-7.98432e-02,0.2
-7.98424e-02,0.8
-7.98416e-02,0
-7.98408e-02,0.6
-7.98400e-02,1.2
-7.98392e-02,1.8
-7.98384e-02,0.8
-7.98376e-02,-0.2
-7.98368e-02,-0.2
-7.98360e-02,0
-7.98352e-02,-0.8
-7.98344e-02,-1.4
-7.98336e-02,-1.6
-7.98328e-02,-2
-7.98320e-02,-2
-7.98312e-02,-1.8
-7.98304e-02,-2.4
-7.98296e-02,-2
-7.98288e-02,-2.2
-7.98280e-02,-2.4
-7.98272e-02,-2.2
-7.98264e-02,-2.4
-7.98256e-02,-2.6
-7.98248e-02,-2.4
-7.98240e-02,-2.8
-7.98232e-02,-3
-7.98224e-02,-2.6
-7.98216e-02,-2.2
-7.98208e-02,-2
-7.98200e-02,-1.8
-7.98192e-02,-2
-7.98184e-02,-2.4
-7.98176e-02,-3
-7.98168e-02,-2.6
-7.98160e-02,-2.2
-7.98152e-02,-2.4
-7.98144e-02,-2.2
-7.98136e-02,-2.2
-7.98128e-02,-2.6
-7.98120e-02,-3
-7.98112e-02,-2.6
-7.98104e-02,-2.4
-7.98096e-02,-2.4
-7.98088e-02,-2.2
-7.98080e-02,-1.8
-7.98072e-02,-2
-7.98064e-02,-2.4
-7.98056e-02,-2.6
-7.98048e-02,-2
-7.98040e-02,-2.6
-7.98032e-02,-2.2
-7.98024e-02,-1.8
-7.98016e-02,-1.8
-7.98008e-02,-2
-7.98000e-02,-2
-7.97992e-02,-1.6
-7.97984e-02,-1.8
-7.97976e-02,-1.6
-7.97968e-02,-1.6
-7.97960e-02,-1.8
-7.97952e-02,-1.6
-7.97944e-02,-1.4
-7.97936e-02,-1.6
-7.97928e-02,-1.4
-7.97920e-02,-1.2
-7.97912e-02,-0.8
-7.97904e-02,-1.4
-7.97896e-02,-0.8
-7.97888e-02,-1
-7.97880e-02,-1.4
-7.97872e-02,-1
-7.97864e-02,-1.4
-7.97856e-02,-1.4
-7.97848e-02,-1.2
-7.97840e-02,-1.6
-7.97832e-02,-1.6
-7.97824e-02,-1.6
-7.97816e-02,-1.8
-7.97808e-02,-1.8
-7.97800e-02,-1.8
-7.97792e-02,-1.4
-7.97784e-02,-1.8
-7.97776e-02,-2
-7.97768e-02,-2.2
-7.97760e-02,-2.4
-7.97752e-02,-2.4
-7.97744e-02,-2.2
-7.97736e-02,-1.6
-7.97728e-02,-2
-7.97720e-02,-2.4
-7.97712e-02,-2
-7.97704e-02,-2
-7.97696e-02,-2
-7.97688e-02,-1.6
-7.97680e-02,-0.6
-7.97672e-02,-1
-7.97664e-02,0.2
-7.97656e-02,-0.4
-7.97648e-02,-1
-7.97640e-02,-0.8
-7.97632e-02,-2
-7.97624e-02,-0.6
-7.97616e-02,-0.6
-7.97608e-02,-0.6
-7.97600e-02,0.2
-7.97592e-02,-0.8
-7.97584e-02,0
-7.97576e-02,-0.6
-7.97568e-02,0.2
-7.97560e-02,-0.4
-7.97552e-02,0
-7.97544e-02,-0.4
-7.97536e-02,-0.6
-7.97528e-02,0.2
-7.97520e-02,-0.8
-7.97512e-02,0
-7.97504e-02,-0.6
-7.97496e-02,-1
-7.97488e-02,-0.2
-7.97480e-02,-0.4
-7.97472e-02,-0.6
-7.97464e-02,-1.2
-7.97456e-02,-1.6
-7.97448e-02,-1.8
-7.97440e-02,-2
-7.97432e-02,-2
-7.97424e-02,-1.8
-7.97416e-02,-2
-7.97408e-02,-2.2
-7.97400e-02,-2.2
-7.97392e-02,-2.4
-7.97384e-02,-2.4
-7.97376e-02,-2.2
-7.97368e-02,-2.2
-7.97360e-02,-2.2
-7.97352e-02,-2
-7.97344e-02,-2.4
-7.97336e-02,-2.2
-7.97328e-02,-2.2
-7.97320e-02,-2.2
-7.97312e-02,-2
-7.97304e-02,-2.2
-7.97296e-02,-2.2
-7.97288e-02,-2.2
-7.97280e-02,-2.2
-7.97272e-02,-2
-7.97264e-02,-2.2
-7.97256e-02,-2.2
-7.97248e-02,-2
-7.97240e-02,-2
-7.97232e-02,-2
-7.97224e-02,-2
-7.97216e-02,-2
-7.97208e-02,-2
-7.97200e-02,-2
-7.97192e-02,-1.8
-7.97184e-02,-1.8
-7.97176e-02,-1.6
-7.97168e-02,-2.2
-7.97160e-02,-1.8
-7.97152e-02,-1.6
-7.97144e-02,-2
-7.97136e-02,-1.6
-7.97128e-02,-1.8
-7.97120e-02,-1.8
-7.97112e-02,-1.4
-7.97104e-02,-1.8
-7.97096e-02,-1.4
-7.97088e-02,-1.4
-7.97080e-02,-1.6
-7.97072e-02,-1.4
-7.97064e-02,-1.2
-7.97056e-02,-1.2
-7.97048e-02,-1.2
-7.97040e-02,-1.2
-7.97032e-02,-1
-7.97024e-02,-1
-7.97016e-02,-1.2
-7.97008e-02,-1
-7.97000e-02,-1
-7.96992e-02,-1
-7.96984e-02,-1.6
-7.96976e-02,-0.6
-7.96968e-02,-0.6
-7.96960e-02,-0.4
-7.96952e-02,0
-7.96944e-02,-0.4
-7.96936e-02,-0.6
-7.96928e-02,-1
-7.96920e-02,-0.8
-7.96912e-02,-0.2
-7.96904e-02,-0.4
-7.96896e-02,-0.4
-7.96888e-02,-0.4
-7.96880e-02,-0.6
-7.96872e-02,-0.4
-7.96864e-02,-1
-7.96856e-02,-1
-7.96848e-02,-0.6
-7.96840e-02,-0.4
-7.96832e-02,-0.6
-7.96824e-02,-0.8
-7.96816e-02,-0.8
-7.96808e-02,-1
-7.96800e-02,-1.2
-7.96792e-02,-1
-7.96784e-02,-1.4
-7.96776e-02,-1.2
-7.96768e-02,-1.6
-7.96760e-02,-1.6
-7.96752e-02,-1.2
-7.96744e-02,-1.8
-7.96736e-02,-1.4
-7.96728e-02,-1.8
-7.96720e-02,-2.2
-7.96712e-02,-2
-7.96704e-02,-2
-7.96696e-02,-1.6
-7.96688e-02,-1.8
-7.96680e-02,-1.8
-7.96672e-02,-1.8
-7.96664e-02,-2
-7.96656e-02,-2
-7.96648e-02,-1.6
-7.96640e-02,-1.8
-7.96632e-02,-1.8
-7.96624e-02,-2
-7.96616e-02,-2
-7.96608e-02,-2
-7.96600e-02,-1.8
-7.96592e-02,-1.8
-7.96584e-02,-2.2
-7.96576e-02,-1.8
-7.96568e-02,-2
-7.96560e-02,-2
-7.96552e-02,-1.6
-7.96544e-02,-1.4
-7.96536e-02,-1.8
-7.96528e-02,-2.2
-7.96520e-02,-2.6
-7.96512e-02,-2.4
-7.96504e-02,-2.2
-7.96496e-02,-2
-7.96488e-02,-1.8
-7.96480e-02,-2
-7.96472e-02,-2
-7.96464e-02,-2
-7.96456e-02,-1.8
-7.96448e-02,-2
-7.96440e-02,-1.8
-7.96432e-02,-1.8
-7.96424e-02,-1.8
-7.96416e-02,-1.4
-7.96408e-02,-1.6
-7.96400e-02,-1.6
-7.96392e-02,-2.6
-7.96384e-02,-3.2
-7.96376e-02,-2.2
-7.96368e-02,-2.4
-7.96360e-02,-1.6
-7.96352e-02,-1.6
-7.96344e-02,-2
-7.96336e-02,-1.8
-7.96328e-02,-2.2
-7.96320e-02,-1.6
-7.96312e-02,-1.4
-7.96304e-02,-1.4
-7.96296e-02,-1.6
-7.96288e-02,-1.8
-7.96280e-02,-1.8
-7.96272e-02,-1.6
-7.96264e-02,-1.6
-7.96256e-02,-1.6
-7.96248e-02,-1.6
-7.96240e-02,-1.8
-7.96232e-02,-1.4
-7.96224e-02,-1.4
-7.96216e-02,-1.2
-7.96208e-02,-1.8
-7.96200e-02,-1.4
-7.96192e-02,-1.4
-7.96184e-02,-1.4
-7.96176e-02,-0.8
-7.96168e-02,-1.2
-7.96160e-02,-1
-7.96152e-02,-1
-7.96144e-02,-1.2
-7.96136e-02,-1
-7.96128e-02,-1
-7.96120e-02,-0.8
-7.96112e-02,-0.8
-7.96104e-02,-0.8
-7.96096e-02,-0.6
-7.96088e-02,-0.6
-7.96080e-02,-0.6
-7.96072e-02,-0.6
-7.96064e-02,-0.6
-7.96056e-02,-0.6
-7.96048e-02,-0.6
-7.96040e-02,-0.2
-7.96032e-02,-0.6
-7.96024e-02,-0.4
-7.96016e-02,-0.2
-7.96008e-02,-0.6
-7.96000e-02,0
-7.95992e-02,-0.2
-7.95984e-02,-0.4
-7.95976e-02,0
-7.95968e-02,-0.2
-7.95960e-02,0
-7.95952e-02,0
-7.95944e-02,0.2
-7.95936e-02,0.2
-7.95928e-02,0
-7.95920e-02,0.2
-7.95912e-02,0.2
-7.95904e-02,0
-7.95896e-02,0.2
-7.95888e-02,0.2
-7.95880e-02,0
-7.95872e-02,0.2
-7.95864e-02,0.2
-7.95856e-02,0
-7.95848e-02,0
-7.95840e-02,0.4
-7.95832e-02,-0.2
-7.95824e-02,-0.2
-7.95816e-02,0
-7.95808e-02,-0.4
-7.95800e-02,-0.2
-7.95792e-02,-0.4
-7.95784e-02,-0.8
-7.95776e-02,-0.6
-7.95768e-02,-0.8
-7.95760e-02,-0.8
-7.95752e-02,-1
-7.95744e-02,-1.4
-7.95736e-02,-1.6
-7.95728e-02,-1.4
-7.95720e-02,-1
-7.95712e-02,-1
-7.95704e-02,-0.6
-7.95696e-02,-0.8
-7.95688e-02,-1.6
-7.95680e-02,-2
-7.95672e-02,-1.8
-7.95664e-02,-1.2
-7.95656e-02,-1.4
-7.95648e-02,-2
-7.95640e-02,-1.2
-7.95632e-02,-2
-7.95624e-02,-1.8
-7.95616e-02,-1.6
-7.95608e-02,-2.2
-7.95600e-02,-2.2
-7.95592e-02,-1.8
-7.95584e-02,-1.2
-7.95576e-02,-1.4
-7.95568e-02,-2
-7.95560e-02,-1.8
-7.95552e-02,-1.2
-7.95544e-02,-1.6
-7.95536e-02,-2
-7.95528e-02,-1.4
-7.95520e-02,-2
-7.95512e-02,-2
-7.95504e-02,-2.2
-7.95496e-02,-1.4
-7.95488e-02,-1.6
-7.95480e-02,-2.2
-7.95472e-02,-2.2
-7.95464e-02,-1.8
-7.95456e-02,-1.6
-7.95448e-02,-2
-7.95440e-02,-1.4
-7.95432e-02,-1.8
-7.95424e-02,-1.8
-7.95416e-02,-1.4
-7.95408e-02,-1.8
-7.95400e-02,-1.4
-7.95392e-02,-1.6
-7.95384e-02,-1.6
-7.95376e-02,-1.6
-7.95368e-02,-1.6
-7.95360e-02,-1.6
-7.95352e-02,-1.6
-7.95344e-02,-1.6
-7.95336e-02,-1.6
-7.95328e-02,-1.4
-7.95320e-02,-1.4
-7.95312e-02,-1.4
-7.95304e-02,-1.2
-7.95296e-02,-1.2
-7.95288e-02,-0.8
-7.95280e-02,-1.4
-7.95272e-02,-2.2
-7.95264e-02,-1.2
-7.95256e-02,-1
-7.95248e-02,-1.2
-7.95240e-02,-0.6
-7.95232e-02,-1.2
-7.95224e-02,-1
-7.95216e-02,-0.8
-7.95208e-02,-0.8
-7.95200e-02,-0.6
-7.95192e-02,-0.6
-7.95184e-02,-0.8
-7.95176e-02,-0.4
-7.95168e-02,-0.2
-7.95160e-02,0
-7.95152e-02,-0.4
-7.95144e-02,-1.2
-7.95136e-02,-1.4
-7.95128e-02,-1.4
-7.95120e-02,-0.6
-7.95112e-02,0
-7.95104e-02,-0.4
-7.95096e-02,0
-7.95088e-02,-0.4
-7.95080e-02,0
-7.95072e-02,-0.2
-7.95064e-02,0.4
-7.95056e-02,0.4
-7.95048e-02,0
-7.95040e-02,0.4
-7.95032e-02,0.2
-7.95024e-02,0.2
-7.95016e-02,0.4
-7.95008e-02,0.2
-7.95000e-02,0.2
-7.94992e-02,0.2
-7.94984e-02,0.2
-7.94976e-02,0.4
-7.94968e-02,0.4
-7.94960e-02,0.4
-7.94952e-02,0.4
-7.94944e-02,0.4
-7.94936e-02,0.6
-7.94928e-02,0.6
-7.94920e-02,0.6
-7.94912e-02,0.6
-7.94904e-02,0.6
-7.94896e-02,0.2
-7.94888e-02,0.4
-7.94880e-02,0.8
-7.94872e-02,0.6
-7.94864e-02,0.8
-7.94856e-02,0.6
-7.94848e-02,0.2
-7.94840e-02,0.6
-7.94832e-02,0.2
-7.94824e-02,0.2
-7.94816e-02,0.2
-7.94808e-02,0
-7.94800e-02,0
-7.94792e-02,-0.2
-7.94784e-02,-0.2
-7.94776e-02,-0.2
-7.94768e-02,-0.4
-7.94760e-02,-0.4
-7.94752e-02,-0.4
-7.94744e-02,-0.6
-7.94736e-02,-0.8
-7.94728e-02,-0.8
-7.94720e-02,-0.8
-7.94712e-02,-1
-7.94704e-02,-0.4
-7.94696e-02,-1
-7.94688e-02,-1
-7.94680e-02,-1
-7.94672e-02,-1.2
-7.94664e-02,-1
-7.94656e-02,-1.2
-7.94648e-02,-1.6
-7.94640e-02,-1.4
-7.94632e-02,-1.4
-7.94624e-02,-1.4
-7.94616e-02,-1.4
-7.94608e-02,-1.4
-7.94600e-02,-1.4
-7.94592e-02,-1.4
-7.94584e-02,-1.4
-7.94576e-02,-1.4
-7.94568e-02,-1.4
-7.94560e-02,-1.4
-7.94552e-02,-1.4
-7.94544e-02,-1.4
-7.94536e-02,-1.4
-7.94528e-02,-1.4
-7.94520e-02,-1.2
-7.94512e-02,-1.8
-7.94504e-02,-1
-7.94496e-02,-1.6
-7.94488e-02,-1.8
-7.94480e-02,-1.4
-7.94472e-02,-1.6
-7.94464e-02,-1.2
-7.94456e-02,-0.8
-7.94448e-02,-1
-7.94440e-02,-1.4
-7.94432e-02,-1.6
-7.94424e-02,-1.6
-7.94416e-02,-1
-7.94408e-02,-1.4
-7.94400e-02,-1.2
-7.94392e-02,-1.2
-7.94384e-02,-1.4
-7.94376e-02,-1.4
-7.94368e-02,-1.2
-7.94360e-02,-1
-7.94352e-02,-1.4
-7.94344e-02,-1.8
-7.94336e-02,-1.8
-7.94328e-02,-0.6
-7.94320e-02,-0.6
-7.94312e-02,-1
-7.94304e-02,-1
-7.94296e-02,-0.8
-7.94288e-02,-0.2
-7.94280e-02,-0.8
-7.94272e-02,-1
-7.94264e-02,-0.8
-7.94256e-02,-0.4
-7.94248e-02,-0.8
-7.94240e-02,-0.6
-7.94232e-02,-0.4
-7.94224e-02,-1
-7.94216e-02,-0.6
-7.94208e-02,-0.4
-7.94200e-02,-0.4
-7.94192e-02,-0.4
-7.94184e-02,-0.4
-7.94176e-02,-0.2
-7.94168e-02,-0.4
-7.94160e-02,0
-7.94152e-02,0
-7.94144e-02,0.6
-7.94136e-02,-0.2
-7.94128e-02,0.2
-7.94120e-02,0.2
-7.94112e-02,0
-7.94104e-02,0.4
-7.94096e-02,0.2
-7.94088e-02,0.2
-7.94080e-02,0.4
-7.94072e-02,0.2
-7.94064e-02,0.4
-7.94056e-02,1
-7.94048e-02,0.2
-7.94040e-02,0.4
-7.94032e-02,0.2
-7.94024e-02,0.2
-7.94016e-02,0.4
-7.94008e-02,0.6
-7.94000e-02,0.8
-7.93992e-02,0.8
-7.93984e-02,0.8
-7.93976e-02,0.6
-7.93968e-02,1
-7.93960e-02,0.8
-7.93952e-02,0.8
-7.93944e-02,1.4
-7.93936e-02,0.8
-7.93928e-02,1
-7.93920e-02,1.4
-7.93912e-02,1.2
-7.93904e-02,1.4
-7.93896e-02,0.8
-7.93888e-02,0
-7.93880e-02,0
-7.93872e-02,0.6
-7.93864e-02,1
-7.93856e-02,1
-7.93848e-02,1.2
-7.93840e-02,0.6
-7.93832e-02,0.6
-7.93824e-02,0.6
-7.93816e-02,1
-7.93808e-02,0.6
-7.93800e-02,0.6
-7.93792e-02,0.4
-7.93784e-02,0.2
-7.93776e-02,0.4
-7.93768e-02,0.2
-7.93760e-02,-0.2
-7.93752e-02,-0.2
-7.93744e-02,0
-7.93736e-02,-0.6
-7.93728e-02,0
-7.93720e-02,-0.2
-7.93712e-02,-0.6
-7.93704e-02,-0.4
-7.93696e-02,-0.8
-7.93688e-02,-0.8
-7.93680e-02,-0.6
-7.93672e-02,-0.8
-7.93664e-02,-0.8
-7.93656e-02,-1
-7.93648e-02,-1
-7.93640e-02,-1
-7.93632e-02,-1
-7.93624e-02,-1
-7.93616e-02,-1
-7.93608e-02,-1
-7.93600e-02,-1
-7.93592e-02,-1.2
-7.93584e-02,-1.2
-7.93576e-02,-1.4
-7.93568e-02,-1.6
-7.93560e-02,-1.8
-7.93552e-02,-1
-7.93544e-02,-0.4
-7.93536e-02,-1.4
-7.93528e-02,-1
-7.93520e-02,-0.8
-7.93512e-02,-1.2
-7.93504e-02,-1.4
-7.93496e-02,-1.4
-7.93488e-02,-0.6
-7.93480e-02,-1.2
-7.93472e-02,-1.2
-7.93464e-02,-1.4
-7.93456e-02,-1
-7.93448e-02,-1.2
-7.93440e-02,-0.8
-7.93432e-02,-1.2
-7.93424e-02,-1.8
-7.93416e-02,-1.6
-7.93408e-02,-0.6
-7.93400e-02,-0.6
-7.93392e-02,-1
-7.93384e-02,-1
-7.93376e-02,-1
-7.93368e-02,-0.4
-7.93360e-02,-1.2
-7.93352e-02,-0.8
-7.93344e-02,-0.8
-7.93336e-02,-0.8
-7.93328e-02,-1
-7.93320e-02,-0.6
-7.93312e-02,-0.6
-7.93304e-02,-0.8
-7.93296e-02,-1.6
-7.93288e-02,-1.2
-7.93280e-02,-1.8
-7.93272e-02,-0.6
-7.93264e-02,-0.4
-7.93256e-02,-1.2
-7.93248e-02,-1
-7.93240e-02,-0.4
-7.93232e-02,0
-7.93224e-02,-0.2
-7.93216e-02,0
-7.93208e-02,-0.6
-7.93200e-02,-0.2
-7.93192e-02,-0.2
-7.93184e-02,0
-7.93176e-02,-0.6
-7.93168e-02,0
-7.93160e-02,-0.4
-7.93152e-02,-0.2
-7.93144e-02,0.4
-7.93136e-02,0.2
-7.93128e-02,0.6
-7.93120e-02,0.4
-7.93112e-02,0.2
-7.93104e-02,0.4
-7.93096e-02,0.6
-7.93088e-02,0.8
-7.93080e-02,0.8
-7.93072e-02,0.6
-7.93064e-02,0.6
-7.93056e-02,0.6
-7.93048e-02,0.6
-7.93040e-02,0.6
-7.93032e-02,0.8
-7.93024e-02,0.8
-7.93016e-02,0.6
-7.93008e-02,1.2
-7.93000e-02,0.6
-7.92992e-02,1
-7.92984e-02,1.2
-7.92976e-02,0.8
-7.92968e-02,1.2
-7.92960e-02,1
-7.92952e-02,0.8
-7.92944e-02,1.2
-7.92936e-02,0.8
-7.92928e-02,1.2
-7.92920e-02,1.2
-7.92912e-02,1.2
-7.92904e-02,1.2
-7.92896e-02,1.2
-7.92888e-02,1.2
-7.92880e-02,1.2
-7.92872e-02,1
-7.92864e-02,1
-7.92856e-02,1
-7.92848e-02,1
-7.92840e-02,1
-7.92832e-02,1
-7.92824e-02,0.8
-7.92816e-02,0.6
-7.92808e-02,1.2
-7.92800e-02,0.6
-7.92792e-02,0.8
-7.92784e-02,0.6
-7.92776e-02,0.2
-7.92768e-02,0.6
-7.92760e-02,0.2
-7.92752e-02,0.2
-7.92744e-02,0.2
-7.92736e-02,-0.2
-7.92728e-02,0
-7.92720e-02,0
-7.92712e-02,-0.2
-7.92704e-02,-0.2
-7.92696e-02,-0.4
-7.92688e-02,-0.4
-7.92680e-02,-0.6
-7.92672e-02,-0.6
-7.92664e-02,-0.6
-7.92656e-02,-0.6
-7.92648e-02,-0.6
-7.92640e-02,-0.8
-7.92632e-02,-0.8
-7.92624e-02,-0.4
-7.92616e-02,-0.8
-7.92608e-02,-0.2
-7.92600e-02,-1
-7.92592e-02,-1.6
-7.92584e-02,-0.8
-7.92576e-02,-1.2
-7.92568e-02,-1
-7.92560e-02,-0.4
-7.92552e-02,-1
-7.92544e-02,-0.8
-7.92536e-02,-1
-7.92528e-02,-0.6
-7.92520e-02,-0.8
-7.92512e-02,-1
-7.92504e-02,-0.8
-7.92496e-02,-1
-7.92488e-02,-0.8
-7.92480e-02,-0.6
-7.92472e-02,-0.4
-7.92464e-02,-0.4
-7.92456e-02,-1.4
-7.92448e-02,-1.8
-7.92440e-02,-1.4
-7.92432e-02,-0.8
-7.92424e-02,-0.6
-7.92416e-02,-0.6
-7.92408e-02,-0.6
-7.92400e-02,-1.4
-7.92392e-02,-1
-7.92384e-02,-0.4
-7.92376e-02,-0.6
-7.92368e-02,-0.4
-7.92360e-02,-0.4
-7.92352e-02,-0.6
-7.92344e-02,-0.4
-7.92336e-02,-0.6
-7.92328e-02,-0.4
-7.92320e-02,-0.4
-7.92312e-02,-0.4
-7.92304e-02,-0.4
-7.92296e-02,-0.4
-7.92288e-02,-0.4
-7.92280e-02,-0.2
-7.92272e-02,-0.2
-7.92264e-02,-0.4
-7.92256e-02,0
-7.92248e-02,0.2
-7.92240e-02,-0.4
-7.92232e-02,0.4
-7.92224e-02,0
-7.92216e-02,0
-7.92208e-02,0.2
-7.92200e-02,-0.2
-7.92192e-02,0
-7.92184e-02,0.2
-7.92176e-02,0
-7.92168e-02,0.2
-7.92160e-02,-0.4
-7.92152e-02,0.8
-7.92144e-02,0.4
-7.92136e-02,0.2
-7.92128e-02,0.6
-7.92120e-02,0.6
-7.92112e-02,0.6
-7.92104e-02,0.2
-7.92096e-02,0.8
-7.92088e-02,0.2
-7.92080e-02,1
-7.92072e-02,0.8
-7.92064e-02,0.8
-7.92056e-02,0.8
-7.92048e-02,0.6
-7.92040e-02,0
-7.92032e-02,-0.2
-7.92024e-02,1.4
-7.92016e-02,1
-7.92008e-02,1.2
-7.92000e-02,1.2
-7.91992e-02,1
-7.91984e-02,0.4
-7.91976e-02,0.4
-7.91968e-02,1.2
-7.91960e-02,1
-7.91952e-02,0.6
-7.91944e-02,0.8
-7.91936e-02,1
-7.91928e-02,1
-7.91920e-02,1.2
-7.91912e-02,1.2
-7.91904e-02,1.2
-7.91896e-02,1
-7.91888e-02,1.2
-7.91880e-02,1.4
-7.91872e-02,1.4
-7.91864e-02,0.8
-7.91856e-02,1.2
-7.91848e-02,1.4
-7.91840e-02,1.2
-7.91832e-02,1.4
-7.91824e-02,1
-7.91816e-02,0.8
-7.91808e-02,1
-7.91800e-02,0.6
-7.91792e-02,0.8
-7.91784e-02,0.6
-7.91776e-02,0.4
-7.91768e-02,0.4
-7.91760e-02,0.2
-7.91752e-02,0.2
-7.91744e-02,0.2
-7.91736e-02,0.2
-7.91728e-02,0
-7.91720e-02,0
-7.91712e-02,-0.2
-7.91704e-02,-0.2
-7.91696e-02,-0.6
-7.91688e-02,-0.4
-7.91680e-02,-0.6
-7.91672e-02,0
-7.91664e-02,-0.8
-7.91656e-02,-0.6
-7.91648e-02,-0.6
-7.91640e-02,-1
-7.91632e-02,-0.6
-7.91624e-02,-0.8
-7.91616e-02,-0.8
-7.91608e-02,-0.8
-7.91600e-02,-1
-7.91592e-02,-1
-7.91584e-02,-1
-7.91576e-02,-0.8
-7.91568e-02,-0.8
-7.91560e-02,-0.8
-7.91552e-02,-0.8
-7.91544e-02,-0.8
-7.91536e-02,-0.8
-7.91528e-02,-0.8
-7.91520e-02,-1
-7.91512e-02,-1
-7.91504e-02,-1
-7.91496e-02,-0.8
-7.91488e-02,-1
-7.91480e-02,-1
-7.91472e-02,-0.4
-7.91464e-02,-1
-7.91456e-02,-0.8
-7.91448e-02,-0.6
-7.91440e-02,-1
-7.91432e-02,-0.6
-7.91424e-02,-0.8
-7.91416e-02,-1
-7.91408e-02,-0.8
-7.91400e-02,-0.8
-7.91392e-02,-0.8
-7.91384e-02,-0.6
-7.91376e-02,-0.4
-7.91368e-02,-0.2
-7.91360e-02,0.2
-7.91352e-02,-1
-7.91344e-02,-1
-7.91336e-02,-0.8
-7.91328e-02,-0.6
-7.91320e-02,-0.4
-7.91312e-02,0
-7.91304e-02,-0.6
-7.91296e-02,0
-7.91288e-02,-0.2
-7.91280e-02,-0.4
-7.91272e-02,0
-7.91264e-02,-0.4
-7.91256e-02,0
-7.91248e-02,0
-7.91240e-02,0
-7.91232e-02,0.6
-7.91224e-02,0.2
-7.91216e-02,0
-7.91208e-02,-0.4
-7.91200e-02,-0.4
-7.91192e-02,-0.2
-7.91184e-02,0.2
-7.91176e-02,0.6
-7.91168e-02,0.6
-7.91160e-02,0.4
-7.91152e-02,0.2
-7.91144e-02,0.2
-7.91136e-02,0.4
-7.91128e-02,0.8
-7.91120e-02,0.8
-7.91112e-02,1
-7.91104e-02,0
-7.91096e-02,0.8
-7.91088e-02,0.8
-7.91080e-02,0.6
-7.91072e-02,1
-7.91064e-02,0.4
-7.91056e-02,0.6
-7.91048e-02,1
-7.91040e-02,0.8
-7.91032e-02,1
-7.91024e-02,0.8
-7.91016e-02,0.8
-7.91008e-02,1
-7.91000e-02,1
-7.90992e-02,1.2
-7.90984e-02,1
-7.90976e-02,0.8
-7.90968e-02,0.8
-7.90960e-02,1
-7.90952e-02,1.2
-7.90944e-02,1.2
-7.90936e-02,1.2
-7.90928e-02,1
-7.90920e-02,1
-7.90912e-02,1.6
-7.90904e-02,1
-7.90896e-02,1.6
-7.90888e-02,1.6
-7.90880e-02,1.2
-7.90872e-02,1.4
-7.90864e-02,1.4
-7.90856e-02,0.8
-7.90848e-02,1.6
-7.90840e-02,0.8
