smi_TFPM/temp/data/简谐波加任意波/TEK00020.CSV

Model,TBS2102B
Firmware Version,v1.31.16

Point Format,Y
Horizontal Units,S
Horizontal Scale,0.02
Sample Interval,1.6e-06
Filter Frequency,2e+08
Record Length,200000
Gating,0.0% to 100.0%
Probe Attenuation,10
Vertical Units,V
Vertical Offset,0
Vertical Scale,2
Label,
TIME,CH1
-1.60000e-01,-0.32
-1.59998e-01,-1.12
-1.59997e-01,-0.88
-1.59995e-01,-0.16
-1.59994e-01,-0.24
-1.59992e-01,-0.16
-1.59990e-01,0.24
-1.59989e-01,0.24
-1.59987e-01,0.16
-1.59986e-01,0.08
-1.59984e-01,0.64
-1.59982e-01,0.72
-1.59981e-01,0.24
-1.59979e-01,0.56
-1.59978e-01,0.48
-1.59976e-01,0.72
-1.59974e-01,0.88
-1.59973e-01,0.64
-1.59971e-01,0.8
-1.59970e-01,0.88
-1.59968e-01,0.8
-1.59966e-01,0.96
-1.59965e-01,0.64
-1.59963e-01,0.4
-1.59962e-01,0.64
-1.59960e-01,0.56
-1.59958e-01,0.24
-1.59957e-01,0.16
-1.59955e-01,0.24
-1.59954e-01,0.16
-1.59952e-01,-0.08
-1.59950e-01,-0.24
-1.59949e-01,-0.24
-1.59947e-01,-0.72
-1.59946e-01,0.48
-1.59944e-01,-0.24
-1.59942e-01,-0.72
-1.59941e-01,-0.56
-1.59939e-01,-0.8
-1.59938e-01,-1.28
-1.59936e-01,-1.44
-1.59934e-01,-0.8
-1.59933e-01,-1.28
-1.59931e-01,-1.2
-1.59930e-01,-0.96
-1.59928e-01,-0.96
-1.59926e-01,-1.52
-1.59925e-01,-1.36
-1.59923e-01,-1.2
-1.59922e-01,-1.6
-1.59920e-01,-1.28
-1.59918e-01,-1.12
-1.59917e-01,-1.52
-1.59915e-01,-1.44
-1.59914e-01,-1.28
-1.59912e-01,-1.2
-1.59910e-01,-0.96
-1.59909e-01,-1.12
-1.59907e-01,-1.36
-1.59906e-01,-1.04
-1.59904e-01,-1.04
-1.59902e-01,-1.04
-1.59901e-01,-0.96
-1.59899e-01,-0.96
-1.59898e-01,-0.88
-1.59896e-01,-0.4
-1.59894e-01,-0.32
-1.59893e-01,-0.64
-1.59891e-01,-0.16
-1.59890e-01,-0.64
-1.59888e-01,-0.24
-1.59886e-01,-0.24
-1.59885e-01,0.72
-1.59883e-01,0.16
-1.59882e-01,0.64
-1.59880e-01,0.24
-1.59878e-01,0.4
-1.59877e-01,0.4
-1.59875e-01,0.72
-1.59874e-01,0.24
-1.59872e-01,0.16
-1.59870e-01,0.64
-1.59869e-01,0.4
-1.59867e-01,0.24
-1.59866e-01,0.56
-1.59864e-01,0.48
-1.59862e-01,0.16
-1.59861e-01,0
-1.59859e-01,0.16
-1.59858e-01,0.08
-1.59856e-01,-0.16
-1.59854e-01,-0.16
-1.59853e-01,-0.16
-1.59851e-01,-0.56
-1.59850e-01,-0.64
-1.59848e-01,-0.56
-1.59846e-01,-0.8
-1.59845e-01,-0.96
-1.59843e-01,-0.96
-1.59842e-01,-1.2
-1.59840e-01,-1.36
-1.59838e-01,-1.52
-1.59837e-01,-1.44
-1.59835e-01,-1.44
-1.59834e-01,-1.6
-1.59832e-01,-1.28
-1.59830e-01,-0.96
-1.59829e-01,-1.12
-1.59827e-01,-1.36
-1.59826e-01,-1.28
-1.59824e-01,-1.12
-1.59822e-01,-1.52
-1.59821e-01,-0.8
-1.59819e-01,-0.96
-1.59818e-01,-1.2
-1.59816e-01,-1.04
-1.59814e-01,-0.8
-1.59813e-01,-1.28
-1.59811e-01,-1.84
-1.59810e-01,-0.72
-1.59808e-01,-0.96
-1.59806e-01,-1.12
-1.59805e-01,-1.12
-1.59803e-01,-1.44
-1.59802e-01,-1.2
-1.59800e-01,-0.72
-1.59798e-01,-0.8
-1.59797e-01,-0.8
-1.59795e-01,-1.04
-1.59794e-01,-0.96
-1.59792e-01,-0.64
-1.59790e-01,-0.4
-1.59789e-01,-0.24
-1.59787e-01,-0.24
-1.59786e-01,0
-1.59784e-01,0.16
-1.59782e-01,0
-1.59781e-01,0
-1.59779e-01,0.08
-1.59778e-01,-0.16
-1.59776e-01,0.16
-1.59774e-01,0.48
-1.59773e-01,-0.72
-1.59771e-01,0.64
-1.59770e-01,0.08
-1.59768e-01,-0.08
-1.59766e-01,0.48
-1.59765e-01,0.08
-1.59763e-01,-0.24
-1.59762e-01,-0.72
-1.59760e-01,0.64
-1.59758e-01,-0.4
-1.59757e-01,-0.08
-1.59755e-01,-0.08
-1.59754e-01,-0.48
-1.59752e-01,-0.56
-1.59750e-01,-0.4
-1.59749e-01,-0.88
-1.59747e-01,-1.6
-1.59746e-01,-0.88
-1.59744e-01,-1.04
-1.59742e-01,-1.28
-1.59741e-01,-1.12
-1.59739e-01,-1.2
-1.59738e-01,-1.68
-1.59736e-01,-1.52
-1.59734e-01,-1.12
-1.59733e-01,-1.44
-1.59731e-01,-1.76
-1.59730e-01,-1.44
-1.59728e-01,-1.52
-1.59726e-01,-1.36
-1.59725e-01,-1.36
-1.59723e-01,-1.28
-1.59722e-01,-1.44
-1.59720e-01,-1.68
-1.59718e-01,-1.36
-1.59717e-01,-1.28
-1.59715e-01,-1.68
-1.59714e-01,-1.76
-1.59712e-01,-1.52
-1.59710e-01,-1.52
-1.59709e-01,-1.44
-1.59707e-01,-1.52
-1.59706e-01,-1.36
-1.59704e-01,-1.52
-1.59702e-01,-1.52
-1.59701e-01,-0.96
-1.59699e-01,-1.28
-1.59698e-01,-1.44
-1.59696e-01,-0.88
-1.59694e-01,-0.56
-1.59693e-01,-1.44
-1.59691e-01,-1.28
-1.59690e-01,-0.64
-1.59688e-01,-0.4
-1.59686e-01,-0.64
-1.59685e-01,0.24
-1.59683e-01,-0.48
-1.59682e-01,-1.04
-1.59680e-01,-0.72
-1.59678e-01,0.16
-1.59677e-01,0.08
-1.59675e-01,0.32
-1.59674e-01,0
-1.59672e-01,-0.16
-1.59670e-01,-0.16
-1.59669e-01,-0.24
-1.59667e-01,-0.32
-1.59666e-01,-0.24
-1.59664e-01,-0.48
-1.59662e-01,-0.24
-1.59661e-01,-0.16
-1.59659e-01,-0.4
-1.59658e-01,-0.8
-1.59656e-01,-0.64
-1.59654e-01,-0.64
-1.59653e-01,-0.88
-1.59651e-01,-0.88
-1.59650e-01,-0.88
-1.59648e-01,-1.28
-1.59646e-01,-1.52
-1.59645e-01,-0.32
-1.59643e-01,-1.36
-1.59642e-01,-1.6
-1.59640e-01,-1.44
-1.59638e-01,-1.52
-1.59637e-01,-2.24
-1.59635e-01,-0.96
-1.59634e-01,-1.92
-1.59632e-01,-1.68
-1.59630e-01,-1.04
-1.59629e-01,-1.04
-1.59627e-01,-1.12
-1.59626e-01,-1.28
-1.59624e-01,-1.2
-1.59622e-01,-1.28
-1.59621e-01,-1.36
-1.59619e-01,-1.36
-1.59618e-01,-1.36
-1.59616e-01,-1.44
-1.59614e-01,-1.2
-1.59613e-01,-1.2
-1.59611e-01,-1.6
-1.59610e-01,-1.52
-1.59608e-01,-1.68
-1.59606e-01,-1.6
-1.59605e-01,-1.28
-1.59603e-01,-1.52
-1.59602e-01,-1.76
-1.59600e-01,-1.6
-1.59598e-01,-1.36
-1.59597e-01,-1.36
-1.59595e-01,-1.2
-1.59594e-01,-1.04
-1.59592e-01,-1.04
-1.59590e-01,-1.04
-1.59589e-01,-0.96
-1.59587e-01,-0.72
-1.59586e-01,-0.72
-1.59584e-01,-0.72
-1.59582e-01,-0.48
-1.59581e-01,-0.4
-1.59579e-01,-0.48
-1.59578e-01,-0.48
-1.59576e-01,-0.4
-1.59574e-01,-0.32
-1.59573e-01,-0.4
-1.59571e-01,-0.24
-1.59570e-01,-0.24
-1.59568e-01,-1.12
-1.59566e-01,-1.12
-1.59565e-01,-0.56
-1.59563e-01,-0.16
-1.59562e-01,-0.24
-1.59560e-01,0.08
-1.59558e-01,-0.88
-1.59557e-01,-1.36
-1.59555e-01,-0.72
-1.59554e-01,-0.56
-1.59552e-01,-0.88
-1.59550e-01,-0.8
-1.59549e-01,-0.88
-1.59547e-01,-1.44
-1.59546e-01,-1.52
-1.59544e-01,-1.44
-1.59542e-01,-1.36
-1.59541e-01,-1.28
-1.59539e-01,-1.36
-1.59538e-01,-1.28
-1.59536e-01,-1.12
-1.59534e-01,-1.44
-1.59533e-01,-1.2
-1.59531e-01,-0.8
-1.59530e-01,-0.96
-1.59528e-01,-1.36
-1.59526e-01,-1.28
-1.59525e-01,-1.04
-1.59523e-01,-1.12
-1.59522e-01,-1.68
-1.59520e-01,-0.64
-1.59518e-01,-0.88
-1.59517e-01,-1.28
-1.59515e-01,-0.72
-1.59514e-01,-1.28
-1.59512e-01,-2.24
-1.59510e-01,-1.52
-1.59509e-01,-1.52
-1.59507e-01,-1.76
-1.59506e-01,-1.52
-1.59504e-01,-1.44
-1.59502e-01,-1.36
-1.59501e-01,-1.28
-1.59499e-01,-1.36
-1.59498e-01,-1.6
-1.59496e-01,-1.44
-1.59494e-01,-1.52
-1.59493e-01,-1.04
-1.59491e-01,-0.96
-1.59490e-01,-1.28
-1.59488e-01,-1.12
-1.59486e-01,-0.8
-1.59485e-01,-0.64
-1.59483e-01,-0.64
-1.59482e-01,-0.64
-1.59480e-01,-0.56
-1.59478e-01,-0.72
-1.59477e-01,-0.48
-1.59475e-01,-0.48
-1.59474e-01,-0.56
-1.59472e-01,-0.72
-1.59470e-01,-0.64
-1.59469e-01,-0.4
-1.59467e-01,-0.48
-1.59466e-01,-0.64
-1.59464e-01,-0.56
-1.59462e-01,-0.32
-1.59461e-01,-0.32
-1.59459e-01,-0.48
-1.59458e-01,-0.88
-1.59456e-01,-1.12
-1.59454e-01,-1.36
-1.59453e-01,-1.12
-1.59451e-01,-1.12
-1.59450e-01,-1.52
-1.59448e-01,-1.52
-1.59446e-01,-1.12
-1.59445e-01,-1.6
-1.59443e-01,-2.4
-1.59442e-01,-2.72
-1.59440e-01,-2.4
-1.59438e-01,-1.92
-1.59437e-01,-1.2
-1.59435e-01,-0.56
-1.59434e-01,-1.84
-1.59432e-01,-1.36
-1.59430e-01,-0.64
-1.59429e-01,-1.04
-1.59427e-01,-1.04
-1.59426e-01,-0.96
-1.59424e-01,-1.36
-1.59422e-01,-1.2
-1.59421e-01,-1.04
-1.59419e-01,-1.12
-1.59418e-01,-1.12
-1.59416e-01,-1.44
-1.59414e-01,-1.76
-1.59413e-01,-1.52
-1.59411e-01,-1.12
-1.59410e-01,-1.36
-1.59408e-01,-1.6
-1.59406e-01,-1.44
-1.59405e-01,-1.36
-1.59403e-01,-1.52
-1.59402e-01,-1.52
-1.59400e-01,-1.36
-1.59398e-01,-1.76
-1.59397e-01,-2.08
-1.59395e-01,-1.12
-1.59394e-01,-0.88
-1.59392e-01,-1.76
-1.59390e-01,-1.04
-1.59389e-01,-1.04
-1.59387e-01,-2.08
-1.59386e-01,-1.36
-1.59384e-01,-0.64
-1.59382e-01,-1.28
-1.59381e-01,-1.04
-1.59379e-01,-0.32
-1.59378e-01,-0.56
-1.59376e-01,-0.64
-1.59374e-01,-0.24
-1.59373e-01,-0.4
-1.59371e-01,-0.56
-1.59370e-01,-0.8
-1.59368e-01,-0.88
-1.59366e-01,-0.72
-1.59365e-01,-0.72
-1.59363e-01,-0.88
-1.59362e-01,-0.72
-1.59360e-01,-0.96
-1.59358e-01,-1.12
-1.59357e-01,-1.12
-1.59355e-01,-1.04
-1.59354e-01,-1.44
-1.59352e-01,-1.52
-1.59350e-01,-1.2
-1.59349e-01,-1.28
-1.59347e-01,-1.52
-1.59346e-01,-1.44
-1.59344e-01,-1.52
-1.59342e-01,-1.52
-1.59341e-01,-1.44
-1.59339e-01,-1.04
-1.59338e-01,-1.04
-1.59336e-01,-1.2
-1.59334e-01,-1.2
-1.59333e-01,0.24
-1.59331e-01,1.12
-1.59330e-01,0.24
-1.59328e-01,-0.56
-1.59326e-01,0.48
-1.59325e-01,1.12
-1.59323e-01,1.36
-1.59322e-01,1.76
-1.59320e-01,0.8
-1.59318e-01,-0.4
-1.59317e-01,-0.32
-1.59315e-01,-0.48
-1.59314e-01,-0.56
-1.59312e-01,-0.48
-1.59310e-01,-1.12
-1.59309e-01,-1.28
-1.59307e-01,-0.8
-1.59306e-01,-0.48
-1.59304e-01,-1.68
-1.59302e-01,-1.84
-1.59301e-01,-1.28
-1.59299e-01,-1.44
-1.59298e-01,-1.44
-1.59296e-01,-1.44
-1.59294e-01,-1.84
-1.59293e-01,-2
-1.59291e-01,-1.6
-1.59290e-01,-1.52
-1.59288e-01,-1.52
-1.59286e-01,-1.2
-1.59285e-01,-1.36
-1.59283e-01,-0.96
-1.59282e-01,-0.96
-1.59280e-01,-1.12
-1.59278e-01,-1.12
-1.59277e-01,-0.88
-1.59275e-01,-0.88
-1.59274e-01,-0.88
-1.59272e-01,-1.04
-1.59270e-01,-0.96
-1.59269e-01,-0.72
-1.59267e-01,-0.56
-1.59266e-01,-1.12
-1.59264e-01,-0.56
-1.59262e-01,-2.08
-1.59261e-01,-1.76
-1.59259e-01,-0.8
-1.59258e-01,-1.36
-1.59256e-01,-2.16
-1.59254e-01,-1.6
-1.59253e-01,-1.36
-1.59251e-01,-1.44
-1.59250e-01,-1.28
-1.59248e-01,-1.36
-1.59246e-01,-1.44
-1.59245e-01,-1.52
-1.59243e-01,-1.36
-1.59242e-01,-1.12
-1.59240e-01,-1.36
-1.59238e-01,-1.36
-1.59237e-01,-1.28
-1.59235e-01,-1.12
-1.59234e-01,-0.4
-1.59232e-01,0.64
-1.59230e-01,1.2
-1.59229e-01,1.12
-1.59227e-01,1.52
-1.59226e-01,1.6
-1.59224e-01,1.6
-1.59222e-01,1.12
-1.59221e-01,1.44
-1.59219e-01,1.68
-1.59218e-01,1.52
-1.59216e-01,1.52
-1.59214e-01,1.52
-1.59213e-01,1.6
-1.59211e-01,1.52
-1.59210e-01,1.52
-1.59208e-01,0.88
-1.59206e-01,-0.32
-1.59205e-01,-1.12
-1.59203e-01,-1.2
-1.59202e-01,-1.28
-1.59200e-01,-1.44
-1.59198e-01,-1.68
-1.59197e-01,-1.84
-1.59195e-01,-0.8
-1.59194e-01,-1.6
-1.59192e-01,-1.76
-1.59190e-01,-1.52
-1.59189e-01,-1.84
-1.59187e-01,-1.28
-1.59186e-01,-1.36
-1.59184e-01,-1.04
-1.59182e-01,-0.88
-1.59181e-01,-0.96
-1.59179e-01,-1.44
-1.59178e-01,-0.96
-1.59176e-01,-0.96
-1.59174e-01,-1.28
-1.59173e-01,-1.04
-1.59171e-01,-0.96
-1.59170e-01,-1.12
-1.59168e-01,-1.28
-1.59166e-01,-1.36
-1.59165e-01,-1.44
-1.59163e-01,-1.12
-1.59162e-01,-1.28
-1.59160e-01,-1.52
-1.59158e-01,-1.44
-1.59157e-01,-1.44
-1.59155e-01,-1.28
-1.59154e-01,-1.6
-1.59152e-01,-1.2
-1.59150e-01,-1.44
-1.59149e-01,-1.52
-1.59147e-01,-1.28
-1.59146e-01,-2.16
-1.59144e-01,-0.8
-1.59142e-01,-1.36
-1.59141e-01,-1.2
-1.59139e-01,-0.4
-1.59138e-01,0.32
-1.59136e-01,0.48
-1.59134e-01,1.84
-1.59133e-01,1.36
-1.59131e-01,0.56
-1.59130e-01,1.28
-1.59128e-01,1.6
-1.59126e-01,1.36
-1.59125e-01,1.52
-1.59123e-01,1.68
-1.59122e-01,1.44
-1.59120e-01,1.44
-1.59118e-01,1.44
-1.59117e-01,1.44
-1.59115e-01,1.28
-1.59114e-01,1.12
-1.59112e-01,1.04
-1.59110e-01,1.12
-1.59109e-01,0.4
-1.59107e-01,0.88
-1.59106e-01,1.12
-1.59104e-01,-0.4
-1.59102e-01,-1.04
-1.59101e-01,-1.12
-1.59099e-01,-1.44
-1.59098e-01,-1.44
-1.59096e-01,-1.28
-1.59094e-01,-1.44
-1.59093e-01,-1.84
-1.59091e-01,-1.68
-1.59090e-01,-1.36
-1.59088e-01,-1.68
-1.59086e-01,-1.68
-1.59085e-01,-1.52
-1.59083e-01,-1.44
-1.59082e-01,-1.44
-1.59080e-01,-1.52
-1.59078e-01,-1.52
-1.59077e-01,-1.44
-1.59075e-01,-1.52
-1.59074e-01,-1.28
-1.59072e-01,-1.2
-1.59070e-01,-0.88
-1.59069e-01,-0.96
-1.59067e-01,-1.12
-1.59066e-01,-1.12
-1.59064e-01,-1.2
-1.59062e-01,-0.88
-1.59061e-01,-1.36
-1.59059e-01,-1.68
-1.59058e-01,-1.92
-1.59056e-01,-1.2
-1.59054e-01,-1.2
-1.59053e-01,-1.04
-1.59051e-01,-1.52
-1.59050e-01,-1.44
-1.59048e-01,-1.36
-1.59046e-01,-1.28
-1.59045e-01,-1.52
-1.59043e-01,-1.2
-1.59042e-01,-1.2
-1.59040e-01,-0.8
-1.59038e-01,0.64
-1.59037e-01,0.96
-1.59035e-01,1.04
-1.59034e-01,1.36
-1.59032e-01,1.44
-1.59030e-01,1.28
-1.59029e-01,1.28
-1.59027e-01,1.36
-1.59026e-01,1.44
-1.59024e-01,1.28
-1.59022e-01,1.28
-1.59021e-01,1.04
-1.59019e-01,0.8
-1.59018e-01,1.68
-1.59016e-01,1.12
-1.59014e-01,0.96
-1.59013e-01,0.72
-1.59011e-01,0.64
-1.59010e-01,1.6
-1.59008e-01,0.56
-1.59006e-01,0.72
-1.59005e-01,0.48
-1.59003e-01,-0.32
-1.59002e-01,-1.04
-1.59000e-01,-0.48
-1.58998e-01,-1.04
-1.58997e-01,-1.44
-1.58995e-01,-1.76
-1.58994e-01,-1.68
-1.58992e-01,-1.68
-1.58990e-01,-1.92
-1.58989e-01,-1.84
-1.58987e-01,-1.76
-1.58986e-01,-1.68
-1.58984e-01,-1.6
-1.58982e-01,-1.6
-1.58981e-01,-1.68
-1.58979e-01,-1.68
-1.58978e-01,-1.44
-1.58976e-01,-1.28
-1.58974e-01,-1.36
-1.58973e-01,-1.52
-1.58971e-01,-1.44
-1.58970e-01,-1.52
-1.58968e-01,-1.52
-1.58966e-01,-1.44
-1.58965e-01,-1.44
-1.58963e-01,-1.68
-1.58962e-01,-1.52
-1.58960e-01,-1.36
-1.58958e-01,-1.44
-1.58957e-01,-1.76
-1.58955e-01,-1.68
-1.58954e-01,-1.36
-1.58952e-01,-1.6
-1.58950e-01,-1.44
-1.58949e-01,-1.36
-1.58947e-01,-1.36
-1.58946e-01,-1.12
-1.58944e-01,-0.96
-1.58942e-01,-0.88
-1.58941e-01,-0.56
-1.58939e-01,0.08
-1.58938e-01,1.28
-1.58936e-01,0.8
-1.58934e-01,0.16
-1.58933e-01,0.32
-1.58931e-01,0.96
-1.58930e-01,1.28
-1.58928e-01,1.68
-1.58926e-01,1.28
-1.58925e-01,1.12
-1.58923e-01,0.96
-1.58922e-01,1.12
-1.58920e-01,1.28
-1.58918e-01,1.2
-1.58917e-01,1.2
-1.58915e-01,1.2
-1.58914e-01,1.28
-1.58912e-01,1.28
-1.58910e-01,1.12
-1.58909e-01,1.28
-1.58907e-01,1.28
-1.58906e-01,0.96
-1.58904e-01,0.88
-1.58902e-01,0.64
-1.58901e-01,-0.4
-1.58899e-01,-0.72
-1.58898e-01,-1.2
-1.58896e-01,-1.44
-1.58894e-01,-1.84
-1.58893e-01,-1.2
-1.58891e-01,-1.52
-1.58890e-01,-1.6
-1.58888e-01,-1.84
-1.58886e-01,-1.92
-1.58885e-01,-1.04
-1.58883e-01,-2
-1.58882e-01,-1.92
-1.58880e-01,-1.92
-1.58878e-01,-1.76
-1.58877e-01,-1.76
-1.58875e-01,-1.36
-1.58874e-01,-1.6
-1.58872e-01,-1.6
-1.58870e-01,-1.6
-1.58869e-01,-1.6
-1.58867e-01,-1.92
-1.58866e-01,-1.76
-1.58864e-01,-1.52
-1.58862e-01,-1.44
-1.58861e-01,-1.84
-1.58859e-01,-2
-1.58858e-01,-1.68
-1.58856e-01,-1.44
-1.58854e-01,-1.52
-1.58853e-01,-1.52
-1.58851e-01,-1.44
-1.58850e-01,-1.6
-1.58848e-01,-1.36
-1.58846e-01,-0.32
-1.58845e-01,-0.4
-1.58843e-01,0.4
-1.58842e-01,0.96
-1.58840e-01,1.36
-1.58838e-01,1.28
-1.58837e-01,1.28
-1.58835e-01,1.2
-1.58834e-01,1.12
-1.58832e-01,1.12
-1.58830e-01,1.28
-1.58829e-01,1.6
-1.58827e-01,1.28
-1.58826e-01,1.12
-1.58824e-01,1.84
-1.58822e-01,2.08
-1.58821e-01,2.16
-1.58819e-01,1.92
-1.58818e-01,1.52
-1.58816e-01,0.88
-1.58814e-01,1.52
-1.58813e-01,2.08
-1.58811e-01,0.96
-1.58810e-01,0.16
-1.58808e-01,1.52
-1.58806e-01,1.6
-1.58805e-01,1.36
-1.58803e-01,1.52
-1.58802e-01,1.04
-1.58800e-01,0.88
-1.58798e-01,0.16
-1.58797e-01,0.72
-1.58795e-01,0
-1.58794e-01,-0.72
-1.58792e-01,-1.6
-1.58790e-01,-1.36
-1.58789e-01,-1.28
-1.58787e-01,-1.92
-1.58786e-01,-1.92
-1.58784e-01,-1.68
-1.58782e-01,-1.76
-1.58781e-01,-2.08
-1.58779e-01,-2.16
-1.58778e-01,-2.08
-1.58776e-01,-1.92
-1.58774e-01,-1.92
-1.58773e-01,-1.44
-1.58771e-01,-2.16
-1.58770e-01,-2.8
-1.58768e-01,-1.68
-1.58766e-01,-1.52
-1.58765e-01,-2.32
-1.58763e-01,-2.64
-1.58762e-01,-1.92
-1.58760e-01,-1.12
-1.58758e-01,-1.6
-1.58757e-01,-1.68
-1.58755e-01,-1.76
-1.58754e-01,-2
-1.58752e-01,-1.92
-1.58750e-01,-0.16
-1.58749e-01,0.24
-1.58747e-01,0
-1.58746e-01,0.96
-1.58744e-01,1.04
-1.58742e-01,0.88
-1.58741e-01,0.8
-1.58739e-01,0.96
-1.58738e-01,1.12
-1.58736e-01,1.04
-1.58734e-01,1.28
-1.58733e-01,1.6
-1.58731e-01,1.68
-1.58730e-01,1.92
-1.58728e-01,2.24
-1.58726e-01,2.24
-1.58725e-01,2.24
-1.58723e-01,2.16
-1.58722e-01,2.24
-1.58720e-01,2.08
-1.58718e-01,2.16
-1.58717e-01,2.32
-1.58715e-01,2.48
-1.58714e-01,2.08
-1.58712e-01,2
-1.58710e-01,1.68
-1.58709e-01,1.12
-1.58707e-01,0.96
-1.58706e-01,1.04
-1.58704e-01,1.04
-1.58702e-01,1.04
-1.58701e-01,1.04
-1.58699e-01,1.04
-1.58698e-01,1.04
-1.58696e-01,-0.08
-1.58694e-01,0.16
-1.58693e-01,-0.88
-1.58691e-01,-1.92
-1.58690e-01,-2.08
-1.58688e-01,-2.08
-1.58686e-01,-2.8
-1.58685e-01,-2.48
-1.58683e-01,-1.44
-1.58682e-01,-1.68
-1.58680e-01,-1.68
-1.58678e-01,-1.68
-1.58677e-01,-2.08
-1.58675e-01,-2
-1.58674e-01,-1.84
-1.58672e-01,-1.84
-1.58670e-01,-1.92
-1.58669e-01,-1.84
-1.58667e-01,-2.08
-1.58666e-01,-1.84
-1.58664e-01,-1.68
-1.58662e-01,-1.68
-1.58661e-01,-1.76
-1.58659e-01,-1.44
-1.58658e-01,-1.76
-1.58656e-01,-1.68
-1.58654e-01,-1.44
-1.58653e-01,-1.52
-1.58651e-01,-1.36
-1.58650e-01,0.08
-1.58648e-01,0.72
-1.58646e-01,0.88
-1.58645e-01,0.96
-1.58643e-01,0.8
-1.58642e-01,1.04
-1.58640e-01,0.88
-1.58638e-01,0.4
-1.58637e-01,0.4
-1.58635e-01,1.2
-1.58634e-01,1.84
-1.58632e-01,2.48
-1.58630e-01,3.12
-1.58629e-01,3.44
-1.58627e-01,3.2
-1.58626e-01,3.2
-1.58624e-01,3.68
-1.58622e-01,3.6
-1.58621e-01,3.2
-1.58619e-01,2.72
-1.58618e-01,2.16
-1.58616e-01,2
-1.58614e-01,2.16
-1.58613e-01,2.16
-1.58611e-01,2
-1.58610e-01,2.08
-1.58608e-01,2.08
-1.58606e-01,2.08
-1.58605e-01,2
-1.58603e-01,1.92
-1.58602e-01,1.28
-1.58600e-01,1.04
-1.58598e-01,1.2
-1.58597e-01,1.2
-1.58595e-01,0.08
-1.58594e-01,0.48
-1.58592e-01,0.08
-1.58590e-01,-0.96
-1.58589e-01,-1.44
-1.58587e-01,-1.92
-1.58586e-01,-1.92
-1.58584e-01,-2.16
-1.58582e-01,-2.08
-1.58581e-01,-1.76
-1.58579e-01,-1.84
-1.58578e-01,-2.08
-1.58576e-01,-1.92
-1.58574e-01,-1.84
-1.58573e-01,-1.92
-1.58571e-01,-1.92
-1.58570e-01,-1.2
-1.58568e-01,-1.52
-1.58566e-01,-1.84
-1.58565e-01,-2
-1.58563e-01,-2.16
-1.58562e-01,-2.56
-1.58560e-01,-2
-1.58558e-01,-0.88
-1.58557e-01,-0.96
-1.58555e-01,-1.04
-1.58554e-01,0.08
-1.58552e-01,0.32
-1.58550e-01,0.8
-1.58549e-01,1.04
-1.58547e-01,0.88
-1.58546e-01,0.96
-1.58544e-01,0.72
-1.58542e-01,1.28
-1.58541e-01,1.92
-1.58539e-01,2
-1.58538e-01,1.92
-1.58536e-01,1.92
-1.58534e-01,2.16
-1.58533e-01,2.08
-1.58531e-01,1.92
-1.58530e-01,2
-1.58528e-01,1.92
-1.58526e-01,1.76
-1.58525e-01,2.32
-1.58523e-01,2.72
-1.58522e-01,2.72
-1.58520e-01,3.12
-1.58518e-01,2.24
-1.58517e-01,2.72
-1.58515e-01,2.4
-1.58514e-01,2.08
-1.58512e-01,3.04
-1.58510e-01,4.16
-1.58509e-01,3.6
-1.58507e-01,3.44
-1.58506e-01,2.64
-1.58504e-01,2.08
-1.58502e-01,1.44
-1.58501e-01,0.88
-1.58499e-01,1.12
-1.58498e-01,0.88
-1.58496e-01,0.88
-1.58494e-01,1.12
-1.58493e-01,0.88
-1.58491e-01,0.72
-1.58490e-01,0.4
-1.58488e-01,-0.88
-1.58486e-01,-1.12
-1.58485e-01,-1.44
-1.58483e-01,-1.6
-1.58482e-01,-2.08
-1.58480e-01,-2.08
-1.58478e-01,-2.08
-1.58477e-01,-2.16
-1.58475e-01,-2
-1.58474e-01,-2.08
-1.58472e-01,-1.92
-1.58470e-01,-2.16
-1.58469e-01,-2
-1.58467e-01,-1.84
-1.58466e-01,-1.84
-1.58464e-01,-2
-1.58462e-01,-1.76
-1.58461e-01,-0.8
-1.58459e-01,-1.44
-1.58458e-01,-1.28
-1.58456e-01,-0.08
-1.58454e-01,0.48
-1.58453e-01,0.64
-1.58451e-01,0.88
-1.58450e-01,0.8
-1.58448e-01,0.64
-1.58446e-01,0.64
-1.58445e-01,1.76
-1.58443e-01,2
-1.58442e-01,1.68
-1.58440e-01,2.16
-1.58438e-01,1.76
-1.58437e-01,0.64
-1.58435e-01,1.68
-1.58434e-01,2.56
-1.58432e-01,2.32
-1.58430e-01,2.72
-1.58429e-01,2.96
-1.58427e-01,2.72
-1.58426e-01,2.8
-1.58424e-01,3.28
-1.58422e-01,3.2
-1.58421e-01,2.88
-1.58419e-01,3.04
-1.58418e-01,3.04
-1.58416e-01,2.48
-1.58414e-01,2.24
-1.58413e-01,1.84
-1.58411e-01,2.64
-1.58410e-01,2.96
-1.58408e-01,2.8
-1.58406e-01,3.12
-1.58405e-01,3.04
-1.58403e-01,2.24
-1.58402e-01,1.92
-1.58400e-01,1.84
-1.58398e-01,1.52
-1.58397e-01,1.04
-1.58395e-01,0.8
-1.58394e-01,0.32
-1.58392e-01,-0.4
-1.58390e-01,0.08
-1.58389e-01,-0.88
-1.58387e-01,-1.52
-1.58386e-01,-0.96
-1.58384e-01,-1.6
-1.58382e-01,-1.76
-1.58381e-01,-1.92
-1.58379e-01,-1.76
-1.58378e-01,-1.92
-1.58376e-01,-2.48
-1.58374e-01,-2.48
-1.58373e-01,-2
-1.58371e-01,-1.76
-1.58370e-01,-1.92
-1.58368e-01,-2
-1.58366e-01,-2.16
-1.58365e-01,-2.24
-1.58363e-01,-2.16
-1.58362e-01,-0.64
-1.58360e-01,0.16
-1.58358e-01,0.56
-1.58357e-01,0.64
-1.58355e-01,0.8
-1.58354e-01,0.72
-1.58352e-01,0.48
-1.58350e-01,0.56
-1.58349e-01,0.72
-1.58347e-01,0.72
-1.58346e-01,0.4
-1.58344e-01,0.4
-1.58342e-01,1.2
-1.58341e-01,1.44
-1.58339e-01,1.6
-1.58338e-01,1.84
-1.58336e-01,1.84
-1.58334e-01,2.24
-1.58333e-01,2.72
-1.58331e-01,2.48
-1.58330e-01,2
-1.58328e-01,2.4
-1.58326e-01,2.56
-1.58325e-01,2.8
-1.58323e-01,2.8
-1.58322e-01,2.88
-1.58320e-01,2.96
-1.58318e-01,3.04
-1.58317e-01,2.24
-1.58315e-01,2.72
-1.58314e-01,2.96
-1.58312e-01,3.04
-1.58310e-01,2.64
-1.58309e-01,2.32
-1.58307e-01,1.36
-1.58306e-01,1.6
-1.58304e-01,1.68
-1.58302e-01,1.52
-1.58301e-01,1.68
-1.58299e-01,1.68
-1.58298e-01,1.2
-1.58296e-01,0.64
-1.58294e-01,0.48
-1.58293e-01,0.48
-1.58291e-01,0.64
-1.58290e-01,0.56
