smi_TFPM/temp/data/音叉/TEK00003.CSV

Model,TBS2102B
Firmware Version,v1.31.16

Point Format,Y
Horizontal Units,S
Horizontal Scale,0.1
Sample Interval,8e-06
Filter Frequency,2e+08
Record Length,200000
Gating,0.0% to 100.0%
Probe Attenuation,10
Vertical Units,V
Vertical Offset,0
Vertical Scale,1
Label,
TIME,CH1
-8.00000e-01,0.28
-7.99992e-01,0.2
-7.99984e-01,0.04
-7.99976e-01,-0.08
-7.99968e-01,-0.2
-7.99960e-01,-0.32
-7.99952e-01,-0.44
-7.99944e-01,-0.48
-7.99936e-01,-0.64
-7.99928e-01,-0.68
-7.99920e-01,-0.72
-7.99912e-01,-0.76
-7.99904e-01,-0.76
-7.99896e-01,-0.84
-7.99888e-01,-0.84
-7.99880e-01,-0.88
-7.99872e-01,-0.92
-7.99864e-01,-0.88
-7.99856e-01,-0.92
-7.99848e-01,-0.92
-7.99840e-01,-0.88
-7.99832e-01,-0.84
-7.99824e-01,-0.88
-7.99816e-01,-0.84
-7.99808e-01,-0.72
-7.99800e-01,-0.52
-7.99792e-01,-0.16
-7.99784e-01,0.24
-7.99776e-01,0.6
-7.99768e-01,0.92
-7.99760e-01,1.04
-7.99752e-01,1.2
-7.99744e-01,1.2
-7.99736e-01,1.2
-7.99728e-01,1.08
-7.99720e-01,1.04
-7.99712e-01,0.96
-7.99704e-01,0.8
-7.99696e-01,0.76
-7.99688e-01,0.68
-7.99680e-01,0.56
-7.99672e-01,0.52
-7.99664e-01,0.4
-7.99656e-01,0.4
-7.99648e-01,0.24
-7.99640e-01,0.2
-7.99632e-01,0.08
-7.99624e-01,0.08
-7.99616e-01,-0.04
-7.99608e-01,-0.08
-7.99600e-01,-0.12
-7.99592e-01,-0.24
-7.99584e-01,-0.32
-7.99576e-01,-0.32
-7.99568e-01,-0.44
-7.99560e-01,-0.48
-7.99552e-01,-0.52
-7.99544e-01,-0.6
-7.99536e-01,-0.56
-7.99528e-01,-0.64
-7.99520e-01,-0.6
-7.99512e-01,-0.76
-7.99504e-01,-0.72
-7.99496e-01,-0.76
-7.99488e-01,-0.84
-7.99480e-01,-0.8
-7.99472e-01,-0.88
-7.99464e-01,-0.88
-7.99456e-01,-0.88
-7.99448e-01,-0.96
-7.99440e-01,-0.92
-7.99432e-01,-0.96
-7.99424e-01,-0.84
-7.99416e-01,-0.88
-7.99408e-01,-0.88
-7.99400e-01,-0.92
-7.99392e-01,-0.88
-7.99384e-01,-0.92
-7.99376e-01,-0.92
-7.99368e-01,-0.88
-7.99360e-01,-0.92
-7.99352e-01,-0.92
-7.99344e-01,-0.8
-7.99336e-01,-0.84
-7.99328e-01,-0.72
-7.99320e-01,-0.76
-7.99312e-01,-0.76
-7.99304e-01,-0.72
-7.99296e-01,-0.68
-7.99288e-01,-0.6
-7.99280e-01,-0.64
-7.99272e-01,-0.6
-7.99264e-01,-0.6
-7.99256e-01,-0.48
-7.99248e-01,-0.48
-7.99240e-01,-0.52
-7.99232e-01,-0.44
-7.99224e-01,-0.2
-7.99216e-01,0.12
-7.99208e-01,0.48
-7.99200e-01,0.92
-7.99192e-01,1.12
-7.99184e-01,1.28
-7.99176e-01,1.48
-7.99168e-01,1.52
-7.99160e-01,1.52
-7.99152e-01,1.52
-7.99144e-01,1.52
-7.99136e-01,1.52
-7.99128e-01,1.52
-7.99120e-01,1.44
-7.99112e-01,1.36
-7.99104e-01,1.28
-7.99096e-01,1.36
-7.99088e-01,1.36
-7.99080e-01,1.32
-7.99072e-01,1.32
-7.99064e-01,1.32
-7.99056e-01,1.28
-7.99048e-01,1.32
-7.99040e-01,1.28
-7.99032e-01,1.32
-7.99024e-01,1.32
-7.99016e-01,1.28
-7.99008e-01,1.36
-7.99000e-01,1.24
-7.98992e-01,1.28
-7.98984e-01,1.24
-7.98976e-01,1.28
-7.98968e-01,1.24
-7.98960e-01,1.12
-7.98952e-01,1.16
-7.98944e-01,1.12
-7.98936e-01,1.16
-7.98928e-01,1.12
-7.98920e-01,1.12
-7.98912e-01,1.16
-7.98904e-01,1.2
-7.98896e-01,1.2
-7.98888e-01,1.16
-7.98880e-01,1.2
-7.98872e-01,1.16
-7.98864e-01,1.16
-7.98856e-01,1.2
-7.98848e-01,1.12
-7.98840e-01,1.12
-7.98832e-01,1.2
-7.98824e-01,1.24
-7.98816e-01,1.2
-7.98808e-01,1.16
-7.98800e-01,1.2
-7.98792e-01,1.28
-7.98784e-01,1.24
-7.98776e-01,1.24
-7.98768e-01,1.2
-7.98760e-01,1.24
-7.98752e-01,1.16
-7.98744e-01,1.12
-7.98736e-01,1.08
-7.98728e-01,1
-7.98720e-01,1
-7.98712e-01,0.92
-7.98704e-01,0.92
-7.98696e-01,0.72
-7.98688e-01,0.36
-7.98680e-01,0.08
-7.98672e-01,-0.36
-7.98664e-01,-0.56
-7.98656e-01,-0.8
-7.98648e-01,-1
-7.98640e-01,-1.04
-7.98632e-01,-1.12
-7.98624e-01,-1.08
-7.98616e-01,-1.12
-7.98608e-01,-1.12
-7.98600e-01,-1.2
-7.98592e-01,-1.16
-7.98584e-01,-1.04
-7.98576e-01,-1.04
-7.98568e-01,-1
-7.98560e-01,-1.08
-7.98552e-01,-1
-7.98544e-01,-1
-7.98536e-01,-1.04
-7.98528e-01,-0.96
-7.98520e-01,-1.04
-7.98512e-01,-0.96
-7.98504e-01,-0.92
-7.98496e-01,-0.88
-7.98488e-01,-0.88
-7.98480e-01,-0.88
-7.98472e-01,-0.8
-7.98464e-01,-0.76
-7.98456e-01,-0.6
-7.98448e-01,-0.56
-7.98440e-01,-0.56
-7.98432e-01,-0.48
-7.98424e-01,-0.48
-7.98416e-01,-0.4
-7.98408e-01,-0.32
-7.98400e-01,-0.24
-7.98392e-01,-0.2
-7.98384e-01,-0.08
-7.98376e-01,0
-7.98368e-01,0.08
-7.98360e-01,0.12
-7.98352e-01,0.28
-7.98344e-01,0.28
-7.98336e-01,0.4
-7.98328e-01,0.4
-7.98320e-01,0.48
-7.98312e-01,0.52
-7.98304e-01,0.64
-7.98296e-01,0.72
-7.98288e-01,0.88
-7.98280e-01,0.88
-7.98272e-01,0.96
-7.98264e-01,0.96
-7.98256e-01,1.08
-7.98248e-01,1.08
-7.98240e-01,1.08
-7.98232e-01,1.16
-7.98224e-01,1.16
-7.98216e-01,1.24
-7.98208e-01,1.2
-7.98200e-01,1.04
-7.98192e-01,0.8
-7.98184e-01,0.48
-7.98176e-01,0.04
-7.98168e-01,-0.32
-7.98160e-01,-0.68
-7.98152e-01,-0.92
-7.98144e-01,-1.08
-7.98136e-01,-1.16
-7.98128e-01,-1.08
-7.98120e-01,-1.16
-7.98112e-01,-1.04
-7.98104e-01,-1
-7.98096e-01,-0.92
-7.98088e-01,-0.8
-7.98080e-01,-0.8
-7.98072e-01,-0.72
-7.98064e-01,-0.68
-7.98056e-01,-0.6
-7.98048e-01,-0.48
-7.98040e-01,-0.4
-7.98032e-01,-0.24
-7.98024e-01,-0.2
-7.98016e-01,-0.12
-7.98008e-01,0
-7.98000e-01,0.08
-7.97992e-01,0.2
-7.97984e-01,0.32
-7.97976e-01,0.48
-7.97968e-01,0.56
-7.97960e-01,0.64
-7.97952e-01,0.76
-7.97944e-01,0.8
-7.97936e-01,0.88
-7.97928e-01,0.92
-7.97920e-01,1.08
-7.97912e-01,1.16
-7.97904e-01,1.12
-7.97896e-01,0.8
-7.97888e-01,0.36
-7.97880e-01,-0.12
-7.97872e-01,-0.44
-7.97864e-01,-0.68
-7.97856e-01,-0.92
-7.97848e-01,-1.08
-7.97840e-01,-1.04
-7.97832e-01,-1.04
-7.97824e-01,-1
-7.97816e-01,-0.92
-7.97808e-01,-0.76
-7.97800e-01,-0.72
-7.97792e-01,-0.64
-7.97784e-01,-0.4
-7.97776e-01,-0.36
-7.97768e-01,-0.24
-7.97760e-01,-0.12
-7.97752e-01,0
-7.97744e-01,0.2
-7.97736e-01,0.32
-7.97728e-01,0.44
-7.97720e-01,0.56
-7.97712e-01,0.68
-7.97704e-01,0.8
-7.97696e-01,0.84
-7.97688e-01,1.08
-7.97680e-01,1.08
-7.97672e-01,1.08
-7.97664e-01,1.16
-7.97656e-01,1.08
-7.97648e-01,0.84
-7.97640e-01,0.36
-7.97632e-01,0.04
-7.97624e-01,-0.32
-7.97616e-01,-0.64
-7.97608e-01,-0.88
-7.97600e-01,-0.92
-7.97592e-01,-0.96
-7.97584e-01,-0.96
-7.97576e-01,-0.84
-7.97568e-01,-0.72
-7.97560e-01,-0.6
-7.97552e-01,-0.44
-7.97544e-01,-0.36
-7.97536e-01,-0.2
-7.97528e-01,-0.08
-7.97520e-01,0.12
-7.97512e-01,0.16
-7.97504e-01,0.28
-7.97496e-01,0.48
-7.97488e-01,0.6
-7.97480e-01,0.84
-7.97472e-01,0.92
-7.97464e-01,1.12
-7.97456e-01,1.24
-7.97448e-01,1.24
-7.97440e-01,1.04
-7.97432e-01,0.76
-7.97424e-01,0.4
-7.97416e-01,0
-7.97408e-01,-0.32
-7.97400e-01,-0.68
-7.97392e-01,-0.84
-7.97384e-01,-0.96
-7.97376e-01,-1
-7.97368e-01,-0.88
-7.97360e-01,-0.8
-7.97352e-01,-0.72
-7.97344e-01,-0.56
-7.97336e-01,-0.48
-7.97328e-01,-0.36
-7.97320e-01,-0.2
-7.97312e-01,0
-7.97304e-01,0.16
-7.97296e-01,0.28
-7.97288e-01,0.52
-7.97280e-01,0.64
-7.97272e-01,0.88
-7.97264e-01,0.96
-7.97256e-01,1.08
-7.97248e-01,1.2
-7.97240e-01,1.2
-7.97232e-01,0.92
-7.97224e-01,0.56
-7.97216e-01,0.12
-7.97208e-01,-0.32
-7.97200e-01,-0.64
-7.97192e-01,-0.8
-7.97184e-01,-0.88
-7.97176e-01,-0.88
-7.97168e-01,-0.76
-7.97160e-01,-0.72
-7.97152e-01,-0.6
-7.97144e-01,-0.48
-7.97136e-01,-0.36
-7.97128e-01,-0.16
-7.97120e-01,-0.04
-7.97112e-01,0.12
-7.97104e-01,0.28
-7.97096e-01,0.52
-7.97088e-01,0.68
-7.97080e-01,0.92
-7.97072e-01,0.96
-7.97064e-01,1
-7.97056e-01,1.12
-7.97048e-01,1.04
-7.97040e-01,0.76
-7.97032e-01,0.32
-7.97024e-01,-0.08
-7.97016e-01,-0.36
-7.97008e-01,-0.64
-7.97000e-01,-0.8
-7.96992e-01,-0.92
-7.96984e-01,-0.84
-7.96976e-01,-0.8
-7.96968e-01,-0.68
-7.96960e-01,-0.6
-7.96952e-01,-0.44
-7.96944e-01,-0.24
-7.96936e-01,-0.16
-7.96928e-01,0.04
-7.96920e-01,0.2
-7.96912e-01,0.36
-7.96904e-01,0.6
-7.96896e-01,0.72
-7.96888e-01,0.88
-7.96880e-01,0.96
-7.96872e-01,0.88
-7.96864e-01,0.64
-7.96856e-01,0.2
-7.96848e-01,-0.12
-7.96840e-01,-0.4
-7.96832e-01,-0.64
-7.96824e-01,-0.8
-7.96816e-01,-0.88
-7.96808e-01,-0.92
-7.96800e-01,-0.8
-7.96792e-01,-0.68
-7.96784e-01,-0.6
-7.96776e-01,-0.48
-7.96768e-01,-0.28
-7.96760e-01,-0.12
-7.96752e-01,0.08
-7.96744e-01,0.24
-7.96736e-01,0.48
-7.96728e-01,0.6
-7.96720e-01,0.72
-7.96712e-01,0.92
-7.96704e-01,0.96
-7.96696e-01,1.12
-7.96688e-01,1.04
-7.96680e-01,0.72
-7.96672e-01,0.32
-7.96664e-01,-0.12
-7.96656e-01,-0.44
-7.96648e-01,-0.64
-7.96640e-01,-0.76
-7.96632e-01,-0.8
-7.96624e-01,-0.76
-7.96616e-01,-0.64
-7.96608e-01,-0.56
-7.96600e-01,-0.4
-7.96592e-01,-0.24
-7.96584e-01,-0.04
-7.96576e-01,0.12
-7.96568e-01,0.28
-7.96560e-01,0.48
-7.96552e-01,0.64
-7.96544e-01,0.92
-7.96536e-01,0.92
-7.96528e-01,1.08
-7.96520e-01,1.04
-7.96512e-01,0.84
-7.96504e-01,0.36
-7.96496e-01,0
-7.96488e-01,-0.36
-7.96480e-01,-0.6
-7.96472e-01,-0.76
-7.96464e-01,-0.8
-7.96456e-01,-0.8
-7.96448e-01,-0.72
-7.96440e-01,-0.6
-7.96432e-01,-0.4
-7.96424e-01,-0.24
-7.96416e-01,-0.08
-7.96408e-01,0.16
-7.96400e-01,0.32
-7.96392e-01,0.56
-7.96384e-01,0.68
-7.96376e-01,0.84
-7.96368e-01,1
-7.96360e-01,1.04
-7.96352e-01,1.24
-7.96344e-01,1.04
-7.96336e-01,0.64
-7.96328e-01,0.28
-7.96320e-01,-0.16
-7.96312e-01,-0.4
-7.96304e-01,-0.68
-7.96296e-01,-0.76
-7.96288e-01,-0.76
-7.96280e-01,-0.8
-7.96272e-01,-0.72
-7.96264e-01,-0.6
-7.96256e-01,-0.36
-7.96248e-01,-0.28
-7.96240e-01,-0.16
-7.96232e-01,0.04
-7.96224e-01,0.24
-7.96216e-01,0.44
-7.96208e-01,0.6
-7.96200e-01,0.76
-7.96192e-01,0.88
-7.96184e-01,0.96
-7.96176e-01,1.04
-7.96168e-01,0.84
-7.96160e-01,0.52
-7.96152e-01,0.16
-7.96144e-01,-0.24
-7.96136e-01,-0.44
-7.96128e-01,-0.64
-7.96120e-01,-0.72
-7.96112e-01,-0.88
-7.96104e-01,-0.8
-7.96096e-01,-0.76
-7.96088e-01,-0.64
-7.96080e-01,-0.48
-7.96072e-01,-0.36
-7.96064e-01,-0.12
-7.96056e-01,-0.04
-7.96048e-01,0.16
-7.96040e-01,0.32
-7.96032e-01,0.48
-7.96024e-01,0.68
-7.96016e-01,0.8
-7.96008e-01,0.88
-7.96000e-01,0.96
-7.95992e-01,1.08
-7.95984e-01,1.04
-7.95976e-01,0.6
-7.95968e-01,0.28
-7.95960e-01,-0.12
-7.95952e-01,-0.44
-7.95944e-01,-0.68
-7.95936e-01,-0.8
-7.95928e-01,-0.8
-7.95920e-01,-0.84
-7.95912e-01,-0.6
-7.95904e-01,-0.52
-7.95896e-01,-0.44
-7.95888e-01,-0.2
-7.95880e-01,0
-7.95872e-01,0.16
-7.95864e-01,0.28
-7.95856e-01,0.52
-7.95848e-01,0.56
-7.95840e-01,0.8
-7.95832e-01,0.88
-7.95824e-01,1
-7.95816e-01,1.12
-7.95808e-01,1
-7.95800e-01,0.8
-7.95792e-01,0.52
-7.95784e-01,0.08
-7.95776e-01,-0.24
-7.95768e-01,-0.52
-7.95760e-01,-0.68
-7.95752e-01,-0.84
-7.95744e-01,-0.88
-7.95736e-01,-0.76
-7.95728e-01,-0.76
-7.95720e-01,-0.6
-7.95712e-01,-0.52
-7.95704e-01,-0.44
-7.95696e-01,-0.24
-7.95688e-01,-0.12
-7.95680e-01,0.08
-7.95672e-01,0.2
-7.95664e-01,0.32
-7.95656e-01,0.44
-7.95648e-01,0.6
-7.95640e-01,0.72
-7.95632e-01,0.8
-7.95624e-01,0.92
-7.95616e-01,1.08
-7.95608e-01,1.12
-7.95600e-01,1.12
-7.95592e-01,1.08
-7.95584e-01,0.84
-7.95576e-01,0.4
-7.95568e-01,0
-7.95560e-01,-0.36
-7.95552e-01,-0.6
-7.95544e-01,-0.8
-7.95536e-01,-0.88
-7.95528e-01,-0.84
-7.95520e-01,-0.8
-7.95512e-01,-0.72
-7.95504e-01,-0.64
-7.95496e-01,-0.52
-7.95488e-01,-0.36
-7.95480e-01,-0.2
-7.95472e-01,-0.08
-7.95464e-01,0
-7.95456e-01,0.2
-7.95448e-01,0.36
-7.95440e-01,0.4
-7.95432e-01,0.56
-7.95424e-01,0.64
-7.95416e-01,0.84
-7.95408e-01,0.96
-7.95400e-01,1
-7.95392e-01,1
-7.95384e-01,1.04
-7.95376e-01,0.88
-7.95368e-01,0.48
-7.95360e-01,0.16
-7.95352e-01,-0.28
-7.95344e-01,-0.52
-7.95336e-01,-0.64
-7.95328e-01,-0.92
-7.95320e-01,-0.88
-7.95312e-01,-0.96
-7.95304e-01,-0.84
-7.95296e-01,-0.72
-7.95288e-01,-0.68
-7.95280e-01,-0.52
-7.95272e-01,-0.48
-7.95264e-01,-0.32
-7.95256e-01,-0.24
-7.95248e-01,-0.12
-7.95240e-01,0.04
-7.95232e-01,0.2
-7.95224e-01,0.4
-7.95216e-01,0.48
-7.95208e-01,0.56
-7.95200e-01,0.76
-7.95192e-01,0.76
-7.95184e-01,0.92
-7.95176e-01,0.96
-7.95168e-01,1.08
-7.95160e-01,1.16
-7.95152e-01,1.16
-7.95144e-01,1.2
-7.95136e-01,1.16
-7.95128e-01,1
-7.95120e-01,0.52
-7.95112e-01,0.08
-7.95104e-01,-0.36
-7.95096e-01,-0.68
-7.95088e-01,-0.92
-7.95080e-01,-1.04
-7.95072e-01,-1.08
-7.95064e-01,-1.12
-7.95056e-01,-0.96
-7.95048e-01,-0.96
-7.95040e-01,-0.88
-7.95032e-01,-0.76
-7.95024e-01,-0.72
-7.95016e-01,-0.56
-7.95008e-01,-0.48
-7.95000e-01,-0.4
-7.94992e-01,-0.28
-7.94984e-01,-0.28
-7.94976e-01,-0.2
-7.94968e-01,-0.08
-7.94960e-01,0
-7.94952e-01,0.16
-7.94944e-01,0.12
-7.94936e-01,0.28
-7.94928e-01,0.36
-7.94920e-01,0.44
-7.94912e-01,0.52
-7.94904e-01,0.64
-7.94896e-01,0.72
-7.94888e-01,0.8
-7.94880e-01,0.88
-7.94872e-01,1
-7.94864e-01,1
-7.94856e-01,1.16
-7.94848e-01,1.2
-7.94840e-01,1.16
-7.94832e-01,1
-7.94824e-01,0.88
-7.94816e-01,0.4
-7.94808e-01,0
-7.94800e-01,-0.44
-7.94792e-01,-0.76
-7.94784e-01,-0.96
-7.94776e-01,-1.12
-7.94768e-01,-1.16
-7.94760e-01,-1.24
-7.94752e-01,-1.12
-7.94744e-01,-1.08
-7.94736e-01,-1
-7.94728e-01,-0.92
-7.94720e-01,-0.92
-7.94712e-01,-0.76
-7.94704e-01,-0.76
-7.94696e-01,-0.64
-7.94688e-01,-0.6
-7.94680e-01,-0.6
-7.94672e-01,-0.4
-7.94664e-01,-0.48
-7.94656e-01,-0.36
-7.94648e-01,-0.32
-7.94640e-01,-0.32
-7.94632e-01,-0.24
-7.94624e-01,-0.12
-7.94616e-01,-0.04
-7.94608e-01,-0.04
-7.94600e-01,0.08
-7.94592e-01,0.16
-7.94584e-01,0.24
-7.94576e-01,0.36
-7.94568e-01,0.36
-7.94560e-01,0.44
-7.94552e-01,0.44
-7.94544e-01,0.52
-7.94536e-01,0.64
-7.94528e-01,0.6
-7.94520e-01,0.68
-7.94512e-01,0.68
-7.94504e-01,0.72
-7.94496e-01,0.84
-7.94488e-01,0.88
-7.94480e-01,0.96
-7.94472e-01,1
-7.94464e-01,1.04
-7.94456e-01,1.08
-7.94448e-01,1.12
-7.94440e-01,1.16
-7.94432e-01,1.12
-7.94424e-01,1.2
-7.94416e-01,1.16
-7.94408e-01,1.16
-7.94400e-01,1.36
-7.94392e-01,1.32
-7.94384e-01,1.36
-7.94376e-01,1.32
-7.94368e-01,1.32
-7.94360e-01,1.32
-7.94352e-01,1.28
-7.94344e-01,1.32
-7.94336e-01,1.2
-7.94328e-01,0.92
-7.94320e-01,0.56
-7.94312e-01,0.04
-7.94304e-01,-0.28
-7.94296e-01,-0.52
-7.94288e-01,-0.72
-7.94280e-01,-0.92
-7.94272e-01,-1.08
-7.94264e-01,-1.16
-7.94256e-01,-1.16
-7.94248e-01,-1.16
-7.94240e-01,-1.2
-7.94232e-01,-1.2
-7.94224e-01,-1.24
-7.94216e-01,-1.16
-7.94208e-01,-1.16
-7.94200e-01,-1.12
-7.94192e-01,-1.08
-7.94184e-01,-1.16
-7.94176e-01,-1.16
-7.94168e-01,-1.2
-7.94160e-01,-1.2
-7.94152e-01,-1.16
-7.94144e-01,-1.16
-7.94136e-01,-1
-7.94128e-01,-1.04
-7.94120e-01,-1
-7.94112e-01,-1
-7.94104e-01,-1
-7.94096e-01,-1
-7.94088e-01,-1.04
-7.94080e-01,-1.08
-7.94072e-01,-1
-7.94064e-01,-1
-7.94056e-01,-1.08
-7.94048e-01,-1.08
-7.94040e-01,-1
-7.94032e-01,-1.04
-7.94024e-01,-0.84
-7.94016e-01,-0.92
-7.94008e-01,-0.92
-7.94000e-01,-0.92
-7.93992e-01,-0.88
-7.93984e-01,-0.84
-7.93976e-01,-0.92
-7.93968e-01,-0.88
-7.93960e-01,-0.88
-7.93952e-01,-0.88
-7.93944e-01,-0.88
-7.93936e-01,-0.92
-7.93928e-01,-0.92
-7.93920e-01,-0.92
-7.93912e-01,-0.92
-7.93904e-01,-0.92
-7.93896e-01,-0.96
-7.93888e-01,-0.84
-7.93880e-01,-0.88
-7.93872e-01,-0.88
-7.93864e-01,-0.84
-7.93856e-01,-0.88
-7.93848e-01,-0.92
-7.93840e-01,-0.8
-7.93832e-01,-0.92
-7.93824e-01,-0.88
-7.93816e-01,-0.92
-7.93808e-01,-0.92
-7.93800e-01,-0.88
-7.93792e-01,-0.92
-7.93784e-01,-0.92
-7.93776e-01,-0.92
-7.93768e-01,-0.88
-7.93760e-01,-0.84
-7.93752e-01,-0.8
-7.93744e-01,-0.8
-7.93736e-01,-0.84
-7.93728e-01,-0.8
-7.93720e-01,-0.84
-7.93712e-01,-0.76
-7.93704e-01,-0.76
-7.93696e-01,-0.76
-7.93688e-01,-0.68
-7.93680e-01,-0.68
-7.93672e-01,-0.6
-7.93664e-01,-0.64
-7.93656e-01,-0.64
-7.93648e-01,-0.56
-7.93640e-01,-0.52
-7.93632e-01,-0.48
-7.93624e-01,-0.32
-7.93616e-01,-0.32
-7.93608e-01,-0.16
-7.93600e-01,0.2
-7.93592e-01,0.56
-7.93584e-01,0.96
-7.93576e-01,1.2
-7.93568e-01,1.28
-7.93560e-01,1.4
-7.93552e-01,1.44
-7.93544e-01,1.44
-7.93536e-01,1.4
-7.93528e-01,1.36
-7.93520e-01,1.28
-7.93512e-01,1.2
-7.93504e-01,1.16
-7.93496e-01,1.04
-7.93488e-01,0.96
-7.93480e-01,0.88
-7.93472e-01,0.76
-7.93464e-01,0.64
-7.93456e-01,0.56
-7.93448e-01,0.48
-7.93440e-01,0.4
-7.93432e-01,0.28
-7.93424e-01,0.32
-7.93416e-01,0.24
-7.93408e-01,0.16
-7.93400e-01,0.08
-7.93392e-01,0.08
-7.93384e-01,0.08
-7.93376e-01,-0.04
-7.93368e-01,-0.04
-7.93360e-01,-0.12
-7.93352e-01,-0.16
-7.93344e-01,-0.32
-7.93336e-01,-0.32
-7.93328e-01,-0.36
-7.93320e-01,-0.48
-7.93312e-01,-0.48
-7.93304e-01,-0.48
-7.93296e-01,-0.56
-7.93288e-01,-0.56
-7.93280e-01,-0.64
-7.93272e-01,-0.64
-7.93264e-01,-0.76
-7.93256e-01,-0.72
-7.93248e-01,-0.8
-7.93240e-01,-0.8
-7.93232e-01,-0.76
-7.93224e-01,-0.8
-7.93216e-01,-0.8
-7.93208e-01,-0.88
-7.93200e-01,-0.88
-7.93192e-01,-0.72
-7.93184e-01,-0.68
-7.93176e-01,-0.6
-7.93168e-01,-0.6
-7.93160e-01,-0.48
-7.93152e-01,-0.16
-7.93144e-01,0.24
-7.93136e-01,0.72
-7.93128e-01,1
-7.93120e-01,1.2
-7.93112e-01,1.2
-7.93104e-01,1.28
-7.93096e-01,1.24
-7.93088e-01,1.08
-7.93080e-01,1
-7.93072e-01,0.84
-7.93064e-01,0.68
-7.93056e-01,0.48
-7.93048e-01,0.36
-7.93040e-01,0.2
-7.93032e-01,0.08
-7.93024e-01,0
-7.93016e-01,-0.08
-7.93008e-01,-0.16
-7.93000e-01,-0.24
-7.92992e-01,-0.32
-7.92984e-01,-0.32
-7.92976e-01,-0.52
-7.92968e-01,-0.52
-7.92960e-01,-0.64
-7.92952e-01,-0.6
-7.92944e-01,-0.76
-7.92936e-01,-0.76
-7.92928e-01,-0.76
-7.92920e-01,-0.84
-7.92912e-01,-0.8
-7.92904e-01,-0.84
-7.92896e-01,-0.72
-7.92888e-01,-0.68
-7.92880e-01,-0.68
-7.92872e-01,-0.44
-7.92864e-01,-0.12
-7.92856e-01,0.36
-7.92848e-01,0.64
-7.92840e-01,1
-7.92832e-01,1.16
-7.92824e-01,1.28
-7.92816e-01,1.28
-7.92808e-01,1.12
-7.92800e-01,1.04
-7.92792e-01,0.84
-7.92784e-01,0.72
-7.92776e-01,0.52
-7.92768e-01,0.24
-7.92760e-01,0.16
-7.92752e-01,-0.04
-7.92744e-01,-0.12
-7.92736e-01,-0.2
-7.92728e-01,-0.4
-7.92720e-01,-0.4
-7.92712e-01,-0.56
-7.92704e-01,-0.52
-7.92696e-01,-0.68
-7.92688e-01,-0.68
-7.92680e-01,-0.76
-7.92672e-01,-0.8
-7.92664e-01,-0.72
-7.92656e-01,-0.72
-7.92648e-01,-0.68
-7.92640e-01,-0.56
-7.92632e-01,-0.4
-7.92624e-01,-0.08
-7.92616e-01,0.36
-7.92608e-01,0.76
-7.92600e-01,1
-7.92592e-01,1.2
-7.92584e-01,1.28
-7.92576e-01,1.2
-7.92568e-01,1.08
-7.92560e-01,0.96
-7.92552e-01,0.76
-7.92544e-01,0.6
-7.92536e-01,0.4
-7.92528e-01,0.24
-7.92520e-01,0.08
-7.92512e-01,0
-7.92504e-01,-0.2
-7.92496e-01,-0.28
-7.92488e-01,-0.44
-7.92480e-01,-0.6
-7.92472e-01,-0.6
-7.92464e-01,-0.72
-7.92456e-01,-0.8
-7.92448e-01,-0.88
-7.92440e-01,-0.88
-7.92432e-01,-0.64
-7.92424e-01,-0.36
-7.92416e-01,0.04
-7.92408e-01,0.48
-7.92400e-01,0.92
-7.92392e-01,1.08
-7.92384e-01,1.28
-7.92376e-01,1.24
-7.92368e-01,1.16
-7.92360e-01,1.04
-7.92352e-01,0.84
-7.92344e-01,0.64
-7.92336e-01,0.48
-7.92328e-01,0.2
-7.92320e-01,0.04
-7.92312e-01,-0.16
-7.92304e-01,-0.24
-7.92296e-01,-0.36
-7.92288e-01,-0.44
-7.92280e-01,-0.52
-7.92272e-01,-0.64
-7.92264e-01,-0.76
-7.92256e-01,-0.88
-7.92248e-01,-0.84
-7.92240e-01,-0.84
-7.92232e-01,-0.84
-7.92224e-01,-0.64
-7.92216e-01,-0.2
-7.92208e-01,0.2
-7.92200e-01,0.68
-7.92192e-01,0.96
-7.92184e-01,1.16
-7.92176e-01,1.12
-7.92168e-01,1.16
-7.92160e-01,1
-7.92152e-01,0.8
-7.92144e-01,0.6
-7.92136e-01,0.44
-7.92128e-01,0.28
-7.92120e-01,0
-7.92112e-01,-0.12
-7.92104e-01,-0.24
-7.92096e-01,-0.4
-7.92088e-01,-0.48
-7.92080e-01,-0.64
-7.92072e-01,-0.68
-7.92064e-01,-0.8
-7.92056e-01,-0.76
-7.92048e-01,-0.84
-7.92040e-01,-0.76
-7.92032e-01,-0.56
-7.92024e-01,-0.08
-7.92016e-01,0.24
-7.92008e-01,0.68
-7.92000e-01,0.84
-7.91992e-01,1
-7.91984e-01,0.96
-7.91976e-01,0.92
-7.91968e-01,0.8
-7.91960e-01,0.56
-7.91952e-01,0.4
-7.91944e-01,0.16
-7.91936e-01,0.04
-7.91928e-01,-0.2
-7.91920e-01,-0.36
-7.91912e-01,-0.56
-7.91904e-01,-0.64
-7.91896e-01,-0.68
-7.91888e-01,-0.76
-7.91880e-01,-0.72
-7.91872e-01,-0.8
-7.91864e-01,-0.6
-7.91856e-01,-0.28
-7.91848e-01,0.16
-7.91840e-01,0.6
-7.91832e-01,0.88
-7.91824e-01,1.04
-7.91816e-01,1.12
-7.91808e-01,1.08
-7.91800e-01,1
-7.91792e-01,0.84
-7.91784e-01,0.64
-7.91776e-01,0.4
-7.91768e-01,0.16
-7.91760e-01,0
-7.91752e-01,-0.08
-7.91744e-01,-0.28
-7.91736e-01,-0.36
-7.91728e-01,-0.52
-7.91720e-01,-0.68
-7.91712e-01,-0.72
-7.91704e-01,-0.8
-7.91696e-01,-0.68
-7.91688e-01,-0.6
-7.91680e-01,-0.6
-7.91672e-01,-0.28
-7.91664e-01,0.12
-7.91656e-01,0.52
-7.91648e-01,0.8
-7.91640e-01,0.92
-7.91632e-01,0.92
-7.91624e-01,0.88
-7.91616e-01,0.72
-7.91608e-01,0.56
-7.91600e-01,0.36
-7.91592e-01,0.16
-7.91584e-01,0.04
-7.91576e-01,-0.08
-7.91568e-01,-0.2
-7.91560e-01,-0.36
-7.91552e-01,-0.48
-7.91544e-01,-0.56
-7.91536e-01,-0.68
-7.91528e-01,-0.76
-7.91520e-01,-0.8
-7.91512e-01,-0.76
-7.91504e-01,-0.56
-7.91496e-01,-0.12
-7.91488e-01,0.24
-7.91480e-01,0.64
-7.91472e-01,0.88
-7.91464e-01,1
-7.91456e-01,0.96
-7.91448e-01,0.92
-7.91440e-01,0.8
-7.91432e-01,0.6
-7.91424e-01,0.44
-7.91416e-01,0.16
-7.91408e-01,0
-7.91400e-01,-0.2
-7.91392e-01,-0.28
-7.91384e-01,-0.48
-7.91376e-01,-0.52
-7.91368e-01,-0.56
-7.91360e-01,-0.64
-7.91352e-01,-0.68
